[15.07.2015 16:03:59][GOOD]  Package "api" started.
[15.07.2015 16:03:59][GOOD]  Package "config" started.
[15.07.2015 16:03:59][GOOD]  Package "command" started.
[15.07.2015 16:03:59][GOOD]  Package "faction" started.
[15.07.2015 16:03:59][GOOD]  Package "database" started.
[15.07.2015 16:03:59][GOOD]  Package "permission" started.
[15.07.2015 16:03:59][GOOD]  Package "item" started.
[15.07.2015 16:03:59][GOOD]  Package "player" started.
[15.07.2015 16:03:59][GOOD]  Package "server" started.
[15.07.2015 16:03:59][INFO] Connection to Database established.
[15.07.2015 16:03:59][INFO] Initializing Faction Manager
[15.07.2015 16:03:59][INFO] Initializing Command Manager
[15.07.2015 16:03:59][INFO] Initializing Player Manager
[15.07.2015 16:03:59][GOOD]  Registered Player Events.
[15.07.2015 16:04:00][ERROR] RedisImplementation - Pub: Error: Redis connection to 127.0.0.1:4203 failed - connect ECONNREFUSED 127.0.0.1:4203
[15.07.2015 16:04:40][GOOD]  Package "api" started.
[15.07.2015 16:04:40][GOOD]  Package "command" started.
[15.07.2015 16:04:40][GOOD]  Package "config" started.
[15.07.2015 16:04:40][GOOD]  Package "database" started.
[15.07.2015 16:04:40][GOOD]  Package "item" started.
[15.07.2015 16:04:40][GOOD]  Package "faction" started.
[15.07.2015 16:04:40][GOOD]  Package "permission" started.
[15.07.2015 16:04:40][GOOD]  Package "player" started.
[15.07.2015 16:04:40][GOOD]  Package "server" started.
[15.07.2015 16:04:40][INFO] Initializing Command Manager
[15.07.2015 16:04:40][INFO] Connection to Database established.
[15.07.2015 16:04:40][INFO] Initializing Player Manager
[15.07.2015 16:04:40][INFO] Initializing Faction Manager
[15.07.2015 16:04:40][GOOD]  Registered Player Events.
[15.07.2015 16:04:41][ERROR] RedisImplementation - Pub: Error: Redis connection to 127.0.0.1:4203 failed - connect ECONNREFUSED 127.0.0.1:4203
[15.07.2015 16:05:03][GOOD]  Package "api" started.
[15.07.2015 16:05:03][GOOD]  Package "command" started.
[15.07.2015 16:05:03][GOOD]  Package "config" started.
[15.07.2015 16:05:03][GOOD]  Package "database" started.
[15.07.2015 16:05:03][GOOD]  Package "faction" started.
[15.07.2015 16:05:03][GOOD]  Package "item" started.
[15.07.2015 16:05:03][GOOD]  Package "permission" started.
[15.07.2015 16:05:03][GOOD]  Package "player" started.
[15.07.2015 16:05:03][GOOD]  Package "server" started.
[15.07.2015 16:05:03][INFO] Connection to Database established.
[15.07.2015 16:05:03][INFO] Initializing Player Manager
[15.07.2015 16:05:03][INFO] Initializing Faction Manager
[15.07.2015 16:05:03][INFO] Initializing Command Manager
[15.07.2015 16:05:03][GOOD]  Registered Player Events.
