[2015-07-05 18:22:35]: Initialize PlayerStatsV Plugin
[2015-07-05 20:23:15]: Initialize PlayerStatsV Plugin
[2015-07-05 20:23:58]: Initialize PlayerStatsV Plugin
[2015-07-05 20:24:28]: Initialize PlayerStatsV Plugin
[2015-07-05 20:24:38]: Initialize PlayerStatsV Plugin
[2015-07-05 20:28:56]: Initialize PlayerStatsV Plugin
[2015-07-05 20:29:29]: Initialize PlayerStatsV Plugin
[2015-07-05 20:30:13]: Initialize PlayerStatsV Plugin
[2015-07-05 20:30:56]: Initialize PlayerStatsV Plugin
[2015-07-05 20:32:26]: Initialize PlayerStatsV Plugin
[2015-07-08 22:37:25]: Initialize PlayerStatsV Plugin
[2015-07-08 22:37:45]: Initialize PlayerStatsV Plugin
[2015-07-09 21:23:17]: Initialize PlayerStatsV Plugin
[2015-07-09 21:25:04]: Initialize PlayerStatsV Plugin
[2015-07-09 21:25:16]: Initialize PlayerStatsV Plugin
[2015-07-09 21:28:30]: Initialize PlayerStatsV Plugin
[2015-07-09 21:29:31]: Initialize PlayerStatsV Plugin
[2015-07-09 21:41:46]: Initialize PlayerStatsV Plugin
[2015-07-09 21:42:29]: Initialize PlayerStatsV Plugin
[2015-07-09 21:43:18]: Initialize PlayerStatsV Plugin
[2015-07-09 21:43:28]: Initialize PlayerStatsV Plugin
[2015-07-09 21:43:38]: Initialize PlayerStatsV Plugin
[2015-07-09 21:43:43]: Initialize PlayerStatsV Plugin
[2015-07-09 21:43:49]: Initialize PlayerStatsV Plugin
[2015-07-09 21:44:23]: Initialize PlayerStatsV Plugin
[2015-07-09 21:44:29]: Initialize PlayerStatsV Plugin
[2015-07-09 21:44:40]: Initialize PlayerStatsV Plugin
[2015-07-09 21:44:45]: Initialize PlayerStatsV Plugin
[2015-07-09 21:44:50]: Initialize PlayerStatsV Plugin
[2015-07-09 21:45:11]: Initialize PlayerStatsV Plugin
[2015-07-09 21:45:37]: Initialize PlayerStatsV Plugin
[2015-07-09 21:45:49]: Initialize PlayerStatsV Plugin
[2015-07-09 21:46:12]: Initialize PlayerStatsV Plugin
[2015-07-09 21:46:24]: Initialize PlayerStatsV Plugin
[2015-07-09 21:47:20]: Initialize PlayerStatsV Plugin
[2015-07-09 21:48:24]: Initialize PlayerStatsV Plugin
[2015-07-09 21:48:49]: Initialize PlayerStatsV Plugin
[2015-07-09 21:48:57]: Initialize PlayerStatsV Plugin
[2015-07-09 21:49:14]: Initialize PlayerStatsV Plugin
[2015-07-09 21:49:21]: Initialize PlayerStatsV Plugin
[2015-07-09 21:49:45]: Initialize PlayerStatsV Plugin
[2015-07-09 21:49:56]: Initialize PlayerStatsV Plugin
[2015-07-09 21:50:15]: Initialize PlayerStatsV Plugin
[2015-07-09 21:50:38]: Initialize PlayerStatsV Plugin
[2015-07-09 21:51:01]: Initialize PlayerStatsV Plugin
[2015-07-09 21:51:49]: Initialize PlayerStatsV Plugin
[2015-07-09 21:52:07]: Initialize PlayerStatsV Plugin
[2015-07-09 21:52:15]: Initialize PlayerStatsV Plugin
[2015-07-09 21:52:38]: Initialize PlayerStatsV Plugin
[2015-07-09 21:52:47]: Initialize PlayerStatsV Plugin
[2015-07-09 21:53:35]: Initialize PlayerStatsV Plugin
[2015-07-09 22:02:27]: Initialize PlayerStatsV Plugin
[2015-07-09 22:03:56]: Initialize PlayerStatsV Plugin
[2015-07-09 22:05:03]: Initialize PlayerStatsV Plugin
[2015-07-09 22:07:43]: Initialize PlayerStatsV Plugin
[2015-07-09 22:09:01]: Initialize PlayerStatsV Plugin
[2015-07-09 22:10:34]: Initialize PlayerStatsV Plugin
[2015-07-09 22:11:41]: Initialize PlayerStatsV Plugin
[2015-07-09 22:14:15]: Initialize PlayerStatsV Plugin
[2015-07-10 16:54:59]: Initialize PlayerStatsV Plugin
[2015-07-10 16:55:17]: Initialize PlayerStatsV Plugin
[2015-07-10 16:56:27]: Initialize PlayerStatsV Plugin
[2015-07-10 17:01:01]: Initialize PlayerStatsV Plugin
[2015-07-10 17:03:22]: Initialize PlayerStatsV Plugin
[2015-07-10 17:04:26]: Initialize PlayerStatsV Plugin
[2015-07-10 17:05:24]: Initialize PlayerStatsV Plugin
[2015-07-10 17:06:12]: Initialize PlayerStatsV Plugin
[2015-07-10 23:29:56]: Initialize PlayerStatsV Plugin
[2015-07-10 23:30:10]: Initialize PlayerStatsV Plugin
[2015-07-10 23:30:42]: Initialize PlayerStatsV Plugin
[2015-07-10 23:32:54]: Initialize PlayerStatsV Plugin
[2015-07-10 23:34:13]: Initialize PlayerStatsV Plugin
[2015-07-10 23:35:48]: Initialize PlayerStatsV Plugin
[2015-07-10 23:36:58]: Initialize PlayerStatsV Plugin
[2015-07-10 23:40:53]: Initialize PlayerStatsV Plugin
[2015-07-10 23:41:34]: Initialize PlayerStatsV Plugin
[2015-07-10 23:42:16]: Initialize PlayerStatsV Plugin
[2015-07-10 23:42:51]: Initialize PlayerStatsV Plugin
[2015-07-10 23:44:33]: Initialize PlayerStatsV Plugin
[2015-07-10 23:45:04]: Initialize PlayerStatsV Plugin
[2015-07-10 23:46:14]: Initialize PlayerStatsV Plugin
[2015-07-11 10:30:55]: Initialize PlayerStatsV Plugin
[2015-07-11 10:31:20]: Initialize PlayerStatsV Plugin
[2015-07-11 10:33:34]: Initialize PlayerStatsV Plugin
[2015-07-11 10:33:46]: Initialize PlayerStatsV Plugin
[2015-07-11 10:35:54]: Initialize PlayerStatsV Plugin
[2015-07-11 10:40:16]: Initialize PlayerStatsV Plugin
[2015-07-11 10:41:05]: Initialize PlayerStatsV Plugin
[2015-07-11 10:42:12]: Initialize PlayerStatsV Plugin
[2015-07-11 10:42:46]: Initialize PlayerStatsV Plugin
[2015-07-11 10:43:25]: Initialize PlayerStatsV Plugin
[2015-07-11 10:46:37]: Initialize PlayerStatsV Plugin
[2015-07-11 10:47:06]: Initialize PlayerStatsV Plugin
[2015-07-11 10:52:00]: Initialize PlayerStatsV Plugin
[2015-07-11 10:52:22]: Initialize PlayerStatsV Plugin
[2015-07-11 14:32:09]: Initialize PlayerStatsV Plugin
[2015-07-11 20:11:51]: Initialize PlayerStatsV Plugin
[2015-07-11 20:18:17]: Initialize PlayerStatsV Plugin
[2015-07-12 11:25:26]: Initialize PlayerStatsV Plugin
[2015-07-12 11:30:00]: Initialize PlayerStatsV Plugin
[2015-07-12 11:31:02]: Initialize PlayerStatsV Plugin
[2015-07-12 11:36:08]: Initialize PlayerStatsV Plugin
[2015-07-12 11:36:26]: Initialize PlayerStatsV Plugin
[2015-07-12 11:37:05]: Initialize PlayerStatsV Plugin
[2015-07-12 11:37:14]: Initialize PlayerStatsV Plugin
[2015-07-12 12:15:38]: Initialize PlayerStatsV Plugin
[2015-07-12 12:17:37]: Initialize PlayerStatsV Plugin
[2015-07-12 13:09:24]: Initialize PlayerStatsV Plugin
[2015-07-12 13:11:22]: Initialize PlayerStatsV Plugin
[2015-07-12 13:13:53]: Initialize PlayerStatsV Plugin
[2015-07-12 13:15:21]: Initialize PlayerStatsV Plugin
[2015-07-12 13:19:16]: Initialize PlayerStatsV Plugin
[2015-07-12 13:20:28]: Initialize PlayerStatsV Plugin
[2015-07-12 13:21:24]: Initialize PlayerStatsV Plugin
[2015-07-12 13:26:08]: Initialize PlayerStatsV Plugin
[2015-07-12 13:27:09]: Initialize PlayerStatsV Plugin
[2015-07-12 13:29:11]: Initialize PlayerStatsV Plugin
[2015-07-12 13:30:01]: Initialize PlayerStatsV Plugin
[2015-07-12 22:02:10]: Initialize PlayerStatsV Plugin
[2015-07-12 22:03:24]: Initialize PlayerStatsV Plugin
[2015-07-12 22:06:40]: Initialize PlayerStatsV Plugin
[2015-07-12 22:06:59]: Initialize PlayerStatsV Plugin
[2015-07-13 19:53:14]: Initialize PlayerStatsV Plugin
[2015-07-13 19:53:54]: Initialize PlayerStatsV Plugin
[2015-07-13 19:56:22]: Initialize PlayerStatsV Plugin
[2015-07-13 19:57:07]: Initialize PlayerStatsV Plugin
[2015-07-13 20:02:56]: Initialize PlayerStatsV Plugin
[2015-07-13 20:06:02]: Initialize PlayerStatsV Plugin
[2015-07-13 20:07:18]: Initialize PlayerStatsV Plugin
[2015-07-13 20:08:44]: Initialize PlayerStatsV Plugin
[2015-07-13 20:12:40]: Initialize PlayerStatsV Plugin
[2015-07-13 20:15:38]: Initialize PlayerStatsV Plugin
[2015-07-13 20:16:57]: Initialize PlayerStatsV Plugin
[2015-07-13 20:17:28]: Initialize PlayerStatsV Plugin
[2015-07-13 20:18:35]: Initialize PlayerStatsV Plugin
[2015-07-13 20:19:10]: Initialize PlayerStatsV Plugin
[2015-07-13 20:20:48]: Initialize PlayerStatsV Plugin
[2015-07-13 20:22:03]: Initialize PlayerStatsV Plugin
[2015-07-13 20:23:29]: Initialize PlayerStatsV Plugin
[2015-07-13 20:24:53]: Initialize PlayerStatsV Plugin
[2015-07-13 20:30:44]: Initialize PlayerStatsV Plugin
[2015-07-13 20:32:30]: Initialize PlayerStatsV Plugin
[2015-07-13 20:33:27]: Initialize PlayerStatsV Plugin
[2015-07-13 20:34:06]: Initialize PlayerStatsV Plugin
[2015-07-13 20:35:16]: Initialize PlayerStatsV Plugin
[2015-07-13 20:36:03]: Initialize PlayerStatsV Plugin
[2015-07-13 20:37:00]: Initialize PlayerStatsV Plugin
[2015-07-13 20:38:18]: Initialize PlayerStatsV Plugin
[2015-07-13 20:38:55]: Initialize PlayerStatsV Plugin
[2015-07-13 20:40:12]: Initialize PlayerStatsV Plugin
[2015-07-13 22:11:52]: Initialize PlayerStatsV Plugin
[2015-07-13 22:12:44]: Initialize PlayerStatsV Plugin
[2015-07-14 17:11:26]: Initialize PlayerStatsV Plugin
[2015-07-14 17:33:52]: Initialize PlayerStatsV Plugin
[2015-07-14 17:35:19]: Initialize PlayerStatsV Plugin
[2015-07-14 19:26:48]: Initialize PlayerStatsV Plugin
[2015-07-14 19:27:44]: Initialize PlayerStatsV Plugin
[2015-07-14 19:28:28]: Initialize PlayerStatsV Plugin
[2015-07-14 19:28:54]: Initialize PlayerStatsV Plugin
[2015-07-14 19:29:04]: Initialize PlayerStatsV Plugin
[2015-07-14 19:29:16]: Initialize PlayerStatsV Plugin
[2015-07-14 19:29:24]: Initialize PlayerStatsV Plugin
[2015-07-14 19:29:48]: Initialize PlayerStatsV Plugin
[2015-07-14 19:31:55]: Initialize PlayerStatsV Plugin
[2015-07-14 19:32:04]: Initialize PlayerStatsV Plugin
[2015-07-14 19:33:18]: Initialize PlayerStatsV Plugin
[2015-07-14 19:34:01]: Initialize PlayerStatsV Plugin
[2015-07-14 19:34:24]: Initialize PlayerStatsV Plugin
[2015-07-14 19:35:08]: Initialize PlayerStatsV Plugin
[2015-07-15 16:03:58]: Initialize PlayerStatsV Plugin
[2015-07-15 16:04:39]: Initialize PlayerStatsV Plugin
[2015-07-15 16:05:02]: Initialize PlayerStatsV Plugin
[2015-07-16 11:11:52]: Initialize PlayerStatsV Plugin
[2015-07-16 11:49:38]: Initialize PlayerStatsV Plugin
[2015-07-16 11:51:03]: Initialize PlayerStatsV Plugin
[2015-07-16 11:51:56]: Initialize PlayerStatsV Plugin
[2015-07-16 11:53:26]: Initialize PlayerStatsV Plugin
[2015-07-16 11:57:39]: Initialize PlayerStatsV Plugin
[2015-07-16 11:57:52]: Initialize PlayerStatsV Plugin
[2015-07-16 12:08:05]: Initialize PlayerStatsV Plugin
[2015-07-16 14:44:30]: Initialize PlayerStatsV Plugin
[2015-07-16 14:45:05]: Initialize PlayerStatsV Plugin
[2015-07-16 14:45:33]: Initialize PlayerStatsV Plugin
[2015-07-16 14:47:02]: Initialize PlayerStatsV Plugin
[2015-07-16 14:47:31]: Initialize PlayerStatsV Plugin
[2015-07-16 14:48:22]: Initialize PlayerStatsV Plugin
[2015-07-16 14:48:47]: Initialize PlayerStatsV Plugin
[2015-07-16 14:49:12]: Initialize PlayerStatsV Plugin
[2015-07-16 14:50:13]: Initialize PlayerStatsV Plugin
[2015-07-16 14:50:49]: Initialize PlayerStatsV Plugin
[2015-07-16 14:51:40]: Initialize PlayerStatsV Plugin
[2015-07-16 15:21:16]: Initialize PlayerStatsV Plugin
[2015-07-16 15:21:22]: Initialize PlayerStatsV Plugin
[2015-07-16 15:22:49]: Initialize PlayerStatsV Plugin
[2015-07-16 15:29:11]: Initialize PlayerStatsV Plugin
[2015-07-16 15:29:46]: Initialize PlayerStatsV Plugin
[2015-07-17 11:59:39]: Initialize PlayerStatsV Plugin
[2015-07-17 12:00:09]: Initialize PlayerStatsV Plugin
[2015-07-17 12:00:22]: Initialize PlayerStatsV Plugin
[2015-07-17 12:00:37]: Initialize PlayerStatsV Plugin
[2015-07-17 12:14:58]: Initialize PlayerStatsV Plugin
[2015-07-17 12:16:01]: Initialize PlayerStatsV Plugin
[2015-07-17 12:16:43]: Initialize PlayerStatsV Plugin
[2015-07-17 12:16:59]: Initialize PlayerStatsV Plugin
[2015-07-17 12:17:36]: Initialize PlayerStatsV Plugin
[2015-07-17 12:17:52]: Initialize PlayerStatsV Plugin
[2015-07-17 12:20:42]: Initialize PlayerStatsV Plugin
[2015-07-17 12:22:04]: Initialize PlayerStatsV Plugin
[2015-07-17 12:54:40]: Initialize PlayerStatsV Plugin
[2015-07-17 14:14:13]: Initialize PlayerStatsV Plugin
[2015-07-17 14:51:52]: Initialize PlayerStatsV Plugin
[2015-07-17 14:53:16]: Initialize PlayerStatsV Plugin
[2015-07-17 14:54:06]: Initialize PlayerStatsV Plugin
[2015-07-17 14:55:28]: Initialize PlayerStatsV Plugin
[2015-07-17 14:56:08]: Initialize PlayerStatsV Plugin
[2015-07-18 15:54:05]: Initialize PlayerStatsV Plugin
[2015-07-18 15:54:42]: Initialize PlayerStatsV Plugin
[2015-07-18 15:56:27]: Initialize PlayerStatsV Plugin
[2015-07-18 16:53:43]: Initialize PlayerStatsV Plugin
[2015-07-18 16:54:20]: Initialize PlayerStatsV Plugin
[2015-07-18 16:55:34]: Initialize PlayerStatsV Plugin
[2015-07-18 16:56:29]: Initialize PlayerStatsV Plugin
[2015-07-18 16:57:03]: Initialize PlayerStatsV Plugin
[2015-07-18 16:57:44]: Initialize PlayerStatsV Plugin
[2015-07-18 16:58:32]: Initialize PlayerStatsV Plugin
[2015-07-18 16:59:37]: Initialize PlayerStatsV Plugin
[2015-07-18 17:00:41]: Initialize PlayerStatsV Plugin
[2015-07-18 17:01:48]: Initialize PlayerStatsV Plugin
[2015-07-18 17:04:52]: Initialize PlayerStatsV Plugin
[2015-07-18 17:06:59]: Initialize PlayerStatsV Plugin
[2015-07-18 17:08:29]: Initialize PlayerStatsV Plugin
[2015-07-18 17:11:44]: Initialize PlayerStatsV Plugin
[2015-07-18 19:19:16]: Initialize PlayerStatsV Plugin
[2015-07-18 19:20:02]: Initialize PlayerStatsV Plugin
[2015-07-18 19:20:45]: Initialize PlayerStatsV Plugin
[2015-07-18 19:22:48]: Initialize PlayerStatsV Plugin
[2015-07-18 19:23:22]: Initialize PlayerStatsV Plugin
[2015-07-18 19:23:23]: Initialize PlayerStatsV Plugin
[2015-07-18 19:27:13]: Initialize PlayerStatsV Plugin
[2015-07-18 19:36:51]: Initialize PlayerStatsV Plugin
[2015-07-18 19:37:23]: Initialize PlayerStatsV Plugin
[2015-07-18 19:38:00]: Initialize PlayerStatsV Plugin
[2015-07-18 19:39:42]: Initialize PlayerStatsV Plugin
[2015-07-18 19:48:36]: Initialize PlayerStatsV Plugin
[2015-07-18 19:51:02]: Initialize PlayerStatsV Plugin
[2015-07-18 19:51:53]: Initialize PlayerStatsV Plugin
[2015-07-18 19:52:28]: Initialize PlayerStatsV Plugin
[2015-07-18 19:53:04]: Initialize PlayerStatsV Plugin
[2015-07-18 19:53:35]: Initialize PlayerStatsV Plugin
[2015-07-18 20:00:31]: Initialize PlayerStatsV Plugin
[2015-07-18 20:01:49]: Initialize PlayerStatsV Plugin
[2015-07-18 20:08:12]: Initialize PlayerStatsV Plugin
[2015-07-18 20:09:19]: Initialize PlayerStatsV Plugin
[2015-07-18 20:09:41]: Initialize PlayerStatsV Plugin
[2015-07-18 20:10:01]: Initialize PlayerStatsV Plugin
[2015-07-18 20:10:22]: Initialize PlayerStatsV Plugin
[2015-07-18 20:21:06]: Initialize PlayerStatsV Plugin
[2015-07-18 20:25:03]: Initialize PlayerStatsV Plugin
[2015-07-18 20:25:43]: Initialize PlayerStatsV Plugin
[2015-07-18 20:31:26]: Initialize PlayerStatsV Plugin
[2015-07-18 20:33:34]: Initialize PlayerStatsV Plugin
[2015-07-18 20:33:49]: Initialize PlayerStatsV Plugin
[2015-07-18 20:34:30]: Initialize PlayerStatsV Plugin
[2015-07-18 20:34:57]: Initialize PlayerStatsV Plugin
[2015-07-18 20:35:09]: Initialize PlayerStatsV Plugin
[2015-07-18 20:35:28]: Initialize PlayerStatsV Plugin
[2015-07-18 20:35:48]: Initialize PlayerStatsV Plugin
[2015-07-18 20:36:16]: Initialize PlayerStatsV Plugin
[2015-07-18 20:36:36]: Initialize PlayerStatsV Plugin
[2015-07-18 20:36:59]: Initialize PlayerStatsV Plugin
[2015-07-18 20:37:09]: Initialize PlayerStatsV Plugin
[2015-07-18 20:38:36]: Initialize PlayerStatsV Plugin
[2015-07-18 20:39:10]: Initialize PlayerStatsV Plugin
[2015-07-18 20:39:35]: Initialize PlayerStatsV Plugin
[2015-07-18 20:39:53]: Initialize PlayerStatsV Plugin
[2015-07-18 20:41:21]: Initialize PlayerStatsV Plugin
[2015-07-18 20:41:33]: Initialize PlayerStatsV Plugin
[2015-07-18 20:42:01]: Initialize PlayerStatsV Plugin
[2015-07-18 20:42:24]: Initialize PlayerStatsV Plugin
[2015-07-18 20:42:53]: Initialize PlayerStatsV Plugin
[2015-07-18 20:43:13]: Initialize PlayerStatsV Plugin
[2015-07-18 20:43:29]: Initialize PlayerStatsV Plugin
[2015-07-18 20:43:41]: Initialize PlayerStatsV Plugin
[2015-07-18 20:43:57]: Initialize PlayerStatsV Plugin
[2015-07-18 20:44:08]: Initialize PlayerStatsV Plugin
[2015-07-18 20:44:28]: Initialize PlayerStatsV Plugin
[2015-07-18 20:44:43]: Initialize PlayerStatsV Plugin
[2015-07-18 20:45:47]: Initialize PlayerStatsV Plugin
[2015-07-18 20:46:12]: Initialize PlayerStatsV Plugin
[2015-07-18 20:46:21]: Initialize PlayerStatsV Plugin
[2015-07-18 20:48:08]: Initialize PlayerStatsV Plugin
[2015-07-18 20:48:22]: Initialize PlayerStatsV Plugin
[2015-07-18 20:48:37]: Initialize PlayerStatsV Plugin
[2015-07-18 20:49:05]: Initialize PlayerStatsV Plugin
[2015-07-19 15:39:22]: Initialize PlayerStatsV Plugin
[2015-07-19 15:40:20]: Initialize PlayerStatsV Plugin
[2015-07-19 15:40:58]: Initialize PlayerStatsV Plugin
[2015-07-19 15:41:17]: Initialize PlayerStatsV Plugin
[2015-07-19 15:46:28]: Initialize PlayerStatsV Plugin
[2015-07-19 15:53:22]: Initialize PlayerStatsV Plugin
[2015-07-19 15:57:45]: Initialize PlayerStatsV Plugin
[2015-07-19 15:59:41]: Initialize PlayerStatsV Plugin
[2015-07-19 16:02:25]: Initialize PlayerStatsV Plugin
[2015-07-19 16:03:34]: Initialize PlayerStatsV Plugin
[2015-07-19 16:04:38]: Initialize PlayerStatsV Plugin
[2015-07-19 16:09:16]: Initialize PlayerStatsV Plugin
[2015-07-19 16:10:46]: Initialize PlayerStatsV Plugin
[2015-07-19 16:11:38]: Initialize PlayerStatsV Plugin
[2015-07-19 16:14:45]: Initialize PlayerStatsV Plugin
[2015-07-19 16:15:32]: Initialize PlayerStatsV Plugin
[2015-07-19 16:16:31]: Initialize PlayerStatsV Plugin
[2015-07-19 16:18:08]: Initialize PlayerStatsV Plugin
[2015-07-19 16:19:40]: Initialize PlayerStatsV Plugin
[2015-07-19 16:19:59]: Initialize PlayerStatsV Plugin
[2015-07-19 16:21:44]: Initialize PlayerStatsV Plugin
[2015-07-19 16:23:51]: Initialize PlayerStatsV Plugin
[2015-07-19 16:25:53]: Initialize PlayerStatsV Plugin
[2015-07-19 16:26:28]: Initialize PlayerStatsV Plugin
[2015-07-19 16:26:47]: Initialize PlayerStatsV Plugin
[2015-07-19 16:27:03]: Initialize PlayerStatsV Plugin
[2015-07-19 16:27:19]: Initialize PlayerStatsV Plugin
[2015-07-19 16:28:47]: Initialize PlayerStatsV Plugin
[2015-07-19 16:29:09]: Initialize PlayerStatsV Plugin
[2015-07-19 16:29:31]: Initialize PlayerStatsV Plugin
[2015-07-19 16:32:19]: Initialize PlayerStatsV Plugin
[2015-07-19 16:33:33]: Initialize PlayerStatsV Plugin
[2015-07-19 16:36:22]: Initialize PlayerStatsV Plugin
[2015-07-19 17:20:14]: Initialize PlayerStatsV Plugin
[2015-07-19 17:21:58]: Initialize PlayerStatsV Plugin
[2015-07-19 17:24:05]: Initialize PlayerStatsV Plugin
[2015-07-19 17:24:37]: Initialize PlayerStatsV Plugin
[2015-07-19 17:27:19]: Initialize PlayerStatsV Plugin
[2015-07-19 17:32:03]: Initialize PlayerStatsV Plugin
[2015-07-19 17:32:58]: Initialize PlayerStatsV Plugin
[2015-07-19 17:34:07]: Initialize PlayerStatsV Plugin
[2015-07-19 17:35:15]: Initialize PlayerStatsV Plugin
[2015-07-19 17:36:28]: Initialize PlayerStatsV Plugin
[2015-07-19 17:36:48]: Initialize PlayerStatsV Plugin
[2015-07-19 17:36:50]: Initialize PlayerStatsV Plugin
[2015-07-19 19:22:42]: Initialize PlayerStatsV Plugin
[2015-07-19 19:38:24]: Initialize PlayerStatsV Plugin
[2015-07-19 19:40:00]: Initialize PlayerStatsV Plugin
[2015-07-19 19:40:54]: Initialize PlayerStatsV Plugin
[2015-07-19 19:42:56]: Initialize PlayerStatsV Plugin
[2015-07-19 19:42:57]: Initialize PlayerStatsV Plugin
[2015-07-19 19:43:19]: Initialize PlayerStatsV Plugin
[2015-07-19 19:43:32]: Initialize PlayerStatsV Plugin
[2015-07-19 19:43:49]: Initialize PlayerStatsV Plugin
[2015-07-19 19:44:00]: Initialize PlayerStatsV Plugin
[2015-07-19 19:44:11]: Initialize PlayerStatsV Plugin
[2015-07-19 19:45:37]: Initialize PlayerStatsV Plugin
[2015-07-19 19:46:57]: Initialize PlayerStatsV Plugin
[2015-07-19 19:47:38]: Initialize PlayerStatsV Plugin
[2015-07-19 19:47:58]: Initialize PlayerStatsV Plugin
[2015-07-19 19:48:12]: Initialize PlayerStatsV Plugin
[2015-07-19 19:53:33]: Initialize PlayerStatsV Plugin
[2015-07-19 19:56:25]: Initialize PlayerStatsV Plugin
[2015-07-23 11:39:48]: Initialize PlayerStatsV Plugin
[2015-07-23 11:40:53]: Initialize PlayerStatsV Plugin
[2015-07-23 11:42:50]: Initialize PlayerStatsV Plugin
[2015-07-23 11:44:55]: Initialize PlayerStatsV Plugin
[2015-07-23 11:46:17]: Initialize PlayerStatsV Plugin
[2015-07-23 11:48:18]: Initialize PlayerStatsV Plugin
[2015-07-23 11:49:30]: Initialize PlayerStatsV Plugin
[2015-07-23 11:54:06]: Initialize PlayerStatsV Plugin
[2015-07-23 11:55:54]: Initialize PlayerStatsV Plugin
[2015-07-23 11:57:36]: Initialize PlayerStatsV Plugin
[2015-07-23 11:59:47]: Initialize PlayerStatsV Plugin
[2015-07-23 12:00:53]: Initialize PlayerStatsV Plugin
[2015-07-23 12:01:44]: Initialize PlayerStatsV Plugin
[2015-07-23 12:04:40]: Initialize PlayerStatsV Plugin
[2015-07-25 08:00:24]: Initialize PlayerStatsV Plugin
[2015-07-25 08:03:57]: Initialize PlayerStatsV Plugin
[2015-07-25 08:06:01]: Initialize PlayerStatsV Plugin
[2015-07-25 08:08:02]: Initialize PlayerStatsV Plugin
[2015-07-25 08:10:07]: Initialize PlayerStatsV Plugin
[2015-07-25 08:12:16]: Initialize PlayerStatsV Plugin
[2015-07-25 08:13:46]: Initialize PlayerStatsV Plugin
[2015-07-25 08:14:24]: Initialize PlayerStatsV Plugin
[2015-07-25 08:21:06]: Initialize PlayerStatsV Plugin
[2015-07-25 08:21:32]: Initialize PlayerStatsV Plugin
[2015-07-25 08:21:51]: Initialize PlayerStatsV Plugin
[2015-07-25 08:22:46]: Initialize PlayerStatsV Plugin
[2015-07-25 08:24:58]: Initialize PlayerStatsV Plugin
[2015-07-25 08:32:16]: Initialize PlayerStatsV Plugin
[2015-07-25 08:33:23]: Initialize PlayerStatsV Plugin
[2015-07-25 08:34:56]: Initialize PlayerStatsV Plugin
[2015-07-25 08:37:39]: Initialize PlayerStatsV Plugin
[2015-07-25 08:41:33]: Initialize PlayerStatsV Plugin
[2015-07-25 08:42:50]: Initialize PlayerStatsV Plugin
[2015-07-25 08:47:10]: Initialize PlayerStatsV Plugin
[2015-07-25 08:57:36]: Initialize PlayerStatsV Plugin
[2015-07-25 09:01:55]: Initialize PlayerStatsV Plugin
[2015-07-25 09:03:35]: Initialize PlayerStatsV Plugin
[2015-07-25 09:03:36]: Initialize PlayerStatsV Plugin
[2015-07-25 09:05:59]: Initialize PlayerStatsV Plugin
[2015-07-25 09:06:17]: Initialize PlayerStatsV Plugin
[2015-07-25 09:08:27]: Initialize PlayerStatsV Plugin
[2015-07-25 09:13:20]: Initialize PlayerStatsV Plugin
[2015-07-25 09:16:40]: Initialize PlayerStatsV Plugin
[2015-07-25 09:19:48]: Initialize PlayerStatsV Plugin
[2015-07-25 09:22:26]: Initialize PlayerStatsV Plugin
[2015-07-25 09:24:24]: Initialize PlayerStatsV Plugin
[2015-07-25 09:27:55]: Initialize PlayerStatsV Plugin
[2015-07-25 09:29:36]: Initialize PlayerStatsV Plugin
[2015-07-25 09:32:03]: Initialize PlayerStatsV Plugin
[2015-07-25 13:53:25]: Initialize PlayerStatsV Plugin
[2015-07-25 15:31:39]: Initialize PlayerStatsV Plugin
[2015-07-25 15:32:06]: Initialize PlayerStatsV Plugin
[2015-07-25 15:32:32]: Initialize PlayerStatsV Plugin
[2015-07-25 15:32:42]: Initialize PlayerStatsV Plugin
[2015-07-25 15:34:46]: Initialize PlayerStatsV Plugin
[2015-07-25 15:35:51]: Initialize PlayerStatsV Plugin
[2015-07-25 15:36:49]: Initialize PlayerStatsV Plugin
[2015-07-25 15:37:08]: Initialize PlayerStatsV Plugin
[2015-07-25 15:37:44]: Initialize PlayerStatsV Plugin
[2015-07-25 15:38:24]: Initialize PlayerStatsV Plugin
[2015-07-25 15:39:52]: Initialize PlayerStatsV Plugin
[2015-07-25 15:40:54]: Initialize PlayerStatsV Plugin
[2015-07-25 15:45:07]: Initialize PlayerStatsV Plugin
[2015-07-25 15:46:38]: Initialize PlayerStatsV Plugin
[2015-07-25 15:47:57]: Initialize PlayerStatsV Plugin
[2015-07-25 15:49:35]: Initialize PlayerStatsV Plugin
[2015-07-25 15:50:55]: Initialize PlayerStatsV Plugin
[2015-07-25 15:53:00]: Initialize PlayerStatsV Plugin
[2015-07-25 15:56:34]: Initialize PlayerStatsV Plugin
[2015-07-25 15:57:50]: Initialize PlayerStatsV Plugin
[2015-07-25 15:59:18]: Initialize PlayerStatsV Plugin
[2015-07-25 16:00:59]: Initialize PlayerStatsV Plugin
[2015-07-25 16:02:14]: Initialize PlayerStatsV Plugin
[2015-07-25 16:06:08]: Initialize PlayerStatsV Plugin
[2015-07-25 16:08:21]: Initialize PlayerStatsV Plugin
[2015-07-25 16:11:16]: Initialize PlayerStatsV Plugin
[2015-07-25 16:14:27]: Initialize PlayerStatsV Plugin
[2015-07-25 16:16:35]: Initialize PlayerStatsV Plugin
[2015-07-25 16:20:29]: Initialize PlayerStatsV Plugin
[2015-07-25 16:21:57]: Initialize PlayerStatsV Plugin
[2015-07-25 16:23:23]: Initialize PlayerStatsV Plugin
[2015-07-26 09:58:29]: Initialize PlayerStatsV Plugin
[2015-07-26 10:06:42]: Initialize PlayerStatsV Plugin
[2015-07-26 10:09:15]: Initialize PlayerStatsV Plugin
[2015-07-26 10:12:13]: Initialize PlayerStatsV Plugin
[2015-07-26 10:12:42]: Initialize PlayerStatsV Plugin
[2015-07-26 10:13:11]: Initialize PlayerStatsV Plugin
[2015-07-26 10:13:32]: Initialize PlayerStatsV Plugin
[2015-07-26 10:25:09]: Initialize PlayerStatsV Plugin
[2015-07-26 10:29:12]: Initialize PlayerStatsV Plugin
[2015-07-26 10:38:51]: Initialize PlayerStatsV Plugin
[2015-07-26 10:43:45]: Initialize PlayerStatsV Plugin
[2015-07-26 16:46:05]: Initialize PlayerStatsV Plugin
[2015-07-26 16:52:50]: Initialize PlayerStatsV Plugin
[2015-07-26 16:53:44]: Initialize PlayerStatsV Plugin
[2015-07-26 16:54:28]: Initialize PlayerStatsV Plugin
[2015-07-26 16:55:12]: Initialize PlayerStatsV Plugin
[2015-07-26 16:56:02]: Initialize PlayerStatsV Plugin
[2015-07-26 16:56:14]: Initialize PlayerStatsV Plugin
[2015-07-26 16:57:23]: Initialize PlayerStatsV Plugin
[2015-07-26 16:57:33]: Initialize PlayerStatsV Plugin
[2015-07-26 16:58:12]: Initialize PlayerStatsV Plugin
[2015-07-26 17:09:26]: Initialize PlayerStatsV Plugin
[2015-07-26 17:11:39]: Initialize PlayerStatsV Plugin
[2015-07-26 17:14:21]: Initialize PlayerStatsV Plugin
[2015-07-26 17:14:47]: Initialize PlayerStatsV Plugin
[2015-07-26 17:15:06]: Initialize PlayerStatsV Plugin
[2015-07-26 17:15:36]: Initialize PlayerStatsV Plugin
[2015-07-26 17:16:00]: Initialize PlayerStatsV Plugin
[2015-07-26 17:18:01]: Initialize PlayerStatsV Plugin
[2015-07-26 17:18:46]: Initialize PlayerStatsV Plugin
[2015-07-26 17:21:41]: Initialize PlayerStatsV Plugin
[2015-07-26 17:23:47]: Initialize PlayerStatsV Plugin
[2015-07-26 17:30:33]: Initialize PlayerStatsV Plugin
[2015-07-26 17:32:30]: Initialize PlayerStatsV Plugin
[2015-07-26 17:33:24]: Initialize PlayerStatsV Plugin
[2015-07-26 17:34:08]: Initialize PlayerStatsV Plugin
[2015-07-26 17:35:40]: Initialize PlayerStatsV Plugin
[2015-07-29 15:56:49]: Initialize PlayerStatsV Plugin
[2015-07-29 15:58:49]: Initialize PlayerStatsV Plugin
[2015-07-29 15:59:00]: Initialize PlayerStatsV Plugin
[2015-07-29 16:00:09]: Initialize PlayerStatsV Plugin
[2015-07-29 16:02:17]: Initialize PlayerStatsV Plugin
[2015-07-29 16:03:22]: Initialize PlayerStatsV Plugin
[2015-07-29 16:04:52]: Initialize PlayerStatsV Plugin
[2015-07-29 16:06:33]: Initialize PlayerStatsV Plugin
[2015-07-29 16:07:05]: Initialize PlayerStatsV Plugin
[2015-07-29 16:07:47]: Initialize PlayerStatsV Plugin
[2015-07-29 16:08:40]: Initialize PlayerStatsV Plugin
[2015-07-29 16:09:09]: Initialize PlayerStatsV Plugin
[2015-07-29 16:09:59]: Initialize PlayerStatsV Plugin
[2015-07-29 16:10:21]: Initialize PlayerStatsV Plugin
[2015-07-29 16:11:40]: Initialize PlayerStatsV Plugin
[2015-07-29 16:12:22]: Initialize PlayerStatsV Plugin
[2015-07-29 16:12:50]: Initialize PlayerStatsV Plugin
[2015-07-29 16:14:30]: Initialize PlayerStatsV Plugin
[2015-07-29 16:15:18]: Initialize PlayerStatsV Plugin
[2015-07-29 16:16:03]: Initialize PlayerStatsV Plugin
[2015-07-29 16:23:33]: Initialize PlayerStatsV Plugin
[2015-07-29 16:24:02]: Initialize PlayerStatsV Plugin
[2015-07-29 16:32:38]: Initialize PlayerStatsV Plugin
[2015-07-29 17:08:29]: Initialize PlayerStatsV Plugin
[2015-07-29 17:16:40]: Initialize PlayerStatsV Plugin
[2015-07-29 17:16:58]: Initialize PlayerStatsV Plugin
[2015-07-29 17:18:13]: Initialize PlayerStatsV Plugin
[2015-07-29 17:19:12]: Initialize PlayerStatsV Plugin
[2015-07-29 17:20:24]: Initialize PlayerStatsV Plugin
[2015-07-29 17:21:39]: Initialize PlayerStatsV Plugin
[2015-07-29 17:24:43]: Initialize PlayerStatsV Plugin
[2015-07-29 17:27:05]: Initialize PlayerStatsV Plugin
[2015-07-29 17:29:24]: Initialize PlayerStatsV Plugin
[2015-07-29 17:29:34]: Initialize PlayerStatsV Plugin
[2015-07-29 17:36:36]: Initialize PlayerStatsV Plugin
[2015-07-29 17:37:27]: Initialize PlayerStatsV Plugin
[2015-07-29 17:37:51]: Initialize PlayerStatsV Plugin
[2015-07-29 17:47:13]: Initialize PlayerStatsV Plugin
[2015-07-29 17:52:08]: Initialize PlayerStatsV Plugin
[2015-07-29 17:54:04]: Initialize PlayerStatsV Plugin
[2015-07-29 17:54:36]: Initialize PlayerStatsV Plugin
[2015-07-29 18:06:05]: Initialize PlayerStatsV Plugin
[2015-07-29 18:07:35]: Initialize PlayerStatsV Plugin
[2015-07-30 16:33:23]: Initialize PlayerStatsV Plugin
[2015-07-30 16:33:58]: Initialize PlayerStatsV Plugin
[2015-07-30 16:36:28]: Initialize PlayerStatsV Plugin
[2015-07-30 16:39:07]: Initialize PlayerStatsV Plugin
[2015-07-30 16:39:55]: Initialize PlayerStatsV Plugin
[2015-07-30 16:40:34]: Initialize PlayerStatsV Plugin
[2015-07-30 16:41:00]: Initialize PlayerStatsV Plugin
[2015-07-30 16:48:53]: Initialize PlayerStatsV Plugin
[2015-08-04 20:23:30]: Initialize PlayerStatsV Plugin
[2015-08-04 20:23:46]: Initialize PlayerStatsV Plugin
[2015-08-04 20:49:22]: Initialize PlayerStatsV Plugin
[2015-08-04 20:58:54]: Initialize PlayerStatsV Plugin
[2015-08-04 21:03:12]: Initialize PlayerStatsV Plugin
[2015-08-04 21:03:32]: Initialize PlayerStatsV Plugin
[2015-08-04 21:04:04]: Initialize PlayerStatsV Plugin
[2015-08-04 21:04:26]: Initialize PlayerStatsV Plugin
[2015-08-04 21:06:41]: Initialize PlayerStatsV Plugin
[2015-08-04 21:08:58]: Initialize PlayerStatsV Plugin
[2015-08-04 21:09:35]: Initialize PlayerStatsV Plugin
[2015-08-04 21:11:06]: Initialize PlayerStatsV Plugin
[2015-08-04 21:11:34]: Initialize PlayerStatsV Plugin
[2015-08-04 21:12:22]: Initialize PlayerStatsV Plugin
[2015-08-04 21:12:43]: Initialize PlayerStatsV Plugin
[2015-08-04 21:15:41]: Initialize PlayerStatsV Plugin
[2015-08-04 21:16:22]: Initialize PlayerStatsV Plugin
[2015-08-04 21:16:51]: Initialize PlayerStatsV Plugin
[2015-08-04 21:17:26]: Initialize PlayerStatsV Plugin
[2015-08-04 21:20:29]: Initialize PlayerStatsV Plugin
[2015-08-04 21:21:23]: Initialize PlayerStatsV Plugin
[2015-08-04 21:22:47]: Initialize PlayerStatsV Plugin
[2015-08-04 21:25:55]: Initialize PlayerStatsV Plugin
[2015-08-04 21:27:47]: Initialize PlayerStatsV Plugin
[2015-08-04 21:28:11]: Initialize PlayerStatsV Plugin
[2015-08-04 21:29:29]: Initialize PlayerStatsV Plugin
[2015-08-04 21:29:49]: Initialize PlayerStatsV Plugin
[2015-08-04 21:30:48]: Initialize PlayerStatsV Plugin
[2015-08-04 21:31:59]: Initialize PlayerStatsV Plugin
[2015-08-04 21:33:50]: Initialize PlayerStatsV Plugin
[2015-08-04 21:34:35]: Initialize PlayerStatsV Plugin
[2015-08-04 21:34:55]: Initialize PlayerStatsV Plugin
[2015-08-04 21:36:53]: Initialize PlayerStatsV Plugin
[2015-08-04 21:37:29]: Initialize PlayerStatsV Plugin
[2015-08-04 21:41:13]: Initialize PlayerStatsV Plugin
[2015-08-04 21:42:38]: Initialize PlayerStatsV Plugin
[2015-08-04 21:45:04]: Initialize PlayerStatsV Plugin
[2015-08-04 21:45:25]: Initialize PlayerStatsV Plugin
[2015-08-04 21:45:52]: Initialize PlayerStatsV Plugin
[2015-08-04 21:46:33]: Initialize PlayerStatsV Plugin
[2015-08-04 21:48:02]: Initialize PlayerStatsV Plugin
[2015-08-04 21:50:07]: Initialize PlayerStatsV Plugin
[2015-08-04 21:51:48]: Initialize PlayerStatsV Plugin
[2015-08-04 21:52:37]: Initialize PlayerStatsV Plugin
[2015-08-04 21:54:14]: Initialize PlayerStatsV Plugin
[2015-08-04 21:54:46]: Initialize PlayerStatsV Plugin
[2015-08-04 21:58:49]: Initialize PlayerStatsV Plugin
[2015-08-04 22:01:33]: Initialize PlayerStatsV Plugin
[2015-08-04 22:02:24]: Initialize PlayerStatsV Plugin
[2015-08-04 22:04:09]: Initialize PlayerStatsV Plugin
[2015-08-04 22:05:05]: Initialize PlayerStatsV Plugin
[2015-08-04 22:10:55]: Initialize PlayerStatsV Plugin
[2015-08-04 22:13:30]: Initialize PlayerStatsV Plugin
[2015-08-04 22:13:38]: Initialize PlayerStatsV Plugin
[2015-08-04 22:13:51]: Initialize PlayerStatsV Plugin
[2015-08-04 22:16:28]: Initialize PlayerStatsV Plugin
[2015-08-04 22:18:54]: Initialize PlayerStatsV Plugin
[2015-08-04 22:19:13]: Initialize PlayerStatsV Plugin
[2015-08-04 22:20:58]: Initialize PlayerStatsV Plugin
[2015-08-04 22:21:36]: Initialize PlayerStatsV Plugin
[2015-08-04 22:23:40]: Initialize PlayerStatsV Plugin
[2015-08-04 22:24:20]: Initialize PlayerStatsV Plugin
[2015-08-04 22:25:00]: Initialize PlayerStatsV Plugin
[2015-08-04 22:26:09]: Initialize PlayerStatsV Plugin
[2015-08-04 22:26:58]: Initialize PlayerStatsV Plugin
[2015-08-04 22:28:39]: Initialize PlayerStatsV Plugin
[2015-08-04 22:30:25]: Initialize PlayerStatsV Plugin
[2015-08-04 22:31:24]: Initialize PlayerStatsV Plugin
[2015-08-04 22:33:44]: Initialize PlayerStatsV Plugin
[2015-08-04 22:34:46]: Initialize PlayerStatsV Plugin
[2015-08-04 22:35:24]: Initialize PlayerStatsV Plugin
[2015-08-04 22:35:44]: Initialize PlayerStatsV Plugin
[2015-08-04 22:38:15]: Initialize PlayerStatsV Plugin
[2015-08-04 22:38:42]: Initialize PlayerStatsV Plugin
[2015-08-04 22:40:18]: Initialize PlayerStatsV Plugin
[2015-08-04 22:41:37]: Initialize PlayerStatsV Plugin
[2015-08-04 22:42:20]: Initialize PlayerStatsV Plugin
[2015-08-04 22:44:36]: Initialize PlayerStatsV Plugin
[2015-08-04 22:45:14]: Initialize PlayerStatsV Plugin
[2015-08-04 22:45:39]: Initialize PlayerStatsV Plugin
[2015-08-04 22:46:52]: Initialize PlayerStatsV Plugin
[2015-08-04 22:48:10]: Initialize PlayerStatsV Plugin
[2015-08-04 22:48:51]: Initialize PlayerStatsV Plugin
[2015-08-04 22:49:38]: Initialize PlayerStatsV Plugin
[2015-08-04 22:50:33]: Initialize PlayerStatsV Plugin
[2015-08-04 22:51:20]: Initialize PlayerStatsV Plugin
[2015-08-04 22:52:06]: Initialize PlayerStatsV Plugin
[2015-08-04 22:53:04]: Initialize PlayerStatsV Plugin
[2015-08-04 22:54:02]: Initialize PlayerStatsV Plugin
[2015-08-04 22:55:52]: Initialize PlayerStatsV Plugin
[2015-08-05 22:53:31]: Initialize PlayerStatsV Plugin
[2015-08-05 22:55:28]: Initialize PlayerStatsV Plugin
[2015-08-05 22:57:39]: Initialize PlayerStatsV Plugin
[2015-08-05 22:59:28]: Initialize PlayerStatsV Plugin
[2015-08-05 23:01:02]: Initialize PlayerStatsV Plugin
[2015-08-05 23:02:21]: Initialize PlayerStatsV Plugin
[2015-08-05 23:05:14]: Initialize PlayerStatsV Plugin
[2015-08-05 23:06:32]: Initialize PlayerStatsV Plugin
[2015-08-05 23:07:47]: Initialize PlayerStatsV Plugin
[2015-08-06 10:21:40]: Initialize PlayerStatsV Plugin
[2015-08-06 10:26:25]: Initialize PlayerStatsV Plugin
[2015-08-06 10:28:28]: Initialize PlayerStatsV Plugin
[2015-08-06 10:29:47]: Initialize PlayerStatsV Plugin
[2015-08-06 10:31:27]: Initialize PlayerStatsV Plugin
[2015-08-06 10:32:03]: Initialize PlayerStatsV Plugin
[2015-08-06 10:33:38]: Initialize PlayerStatsV Plugin
[2015-08-06 10:36:21]: Initialize PlayerStatsV Plugin
[2015-08-06 10:38:07]: Initialize PlayerStatsV Plugin
[2015-08-06 10:38:52]: Initialize PlayerStatsV Plugin
[2015-08-06 10:44:29]: Initialize PlayerStatsV Plugin
[2015-08-06 10:45:37]: Initialize PlayerStatsV Plugin
[2015-08-06 10:47:30]: Initialize PlayerStatsV Plugin
[2015-08-06 10:47:36]: Initialize PlayerStatsV Plugin
[2015-08-06 10:50:01]: Initialize PlayerStatsV Plugin
[2015-08-06 10:51:05]: Initialize PlayerStatsV Plugin
[2015-08-06 10:59:02]: Initialize PlayerStatsV Plugin
[2015-08-06 11:04:00]: Initialize PlayerStatsV Plugin
[2015-08-06 11:06:05]: Initialize PlayerStatsV Plugin
[2015-08-06 11:06:54]: Initialize PlayerStatsV Plugin
[2015-08-06 11:07:30]: Initialize PlayerStatsV Plugin
[2015-08-06 11:09:23]: Initialize PlayerStatsV Plugin
[2015-08-06 11:14:00]: Initialize PlayerStatsV Plugin
[2015-08-06 11:14:40]: Initialize PlayerStatsV Plugin
[2015-08-06 11:17:26]: Initialize PlayerStatsV Plugin
[2015-08-06 11:22:58]: Initialize PlayerStatsV Plugin
[2015-08-06 11:24:14]: Initialize PlayerStatsV Plugin
[2015-08-06 11:25:08]: Initialize PlayerStatsV Plugin
[2015-08-07 19:26:26]: Initialize PlayerStatsV Plugin
[2015-08-07 19:32:26]: Initialize PlayerStatsV Plugin
[2015-08-07 19:35:54]: Initialize PlayerStatsV Plugin
[2015-08-07 19:49:07]: Initialize PlayerStatsV Plugin
[2015-08-07 19:50:03]: Initialize PlayerStatsV Plugin
[2015-08-07 19:53:36]: Initialize PlayerStatsV Plugin
[2015-08-07 19:54:30]: Initialize PlayerStatsV Plugin
[2015-08-07 19:57:06]: Initialize PlayerStatsV Plugin
[2015-08-07 19:58:36]: Initialize PlayerStatsV Plugin
[2015-08-10 20:31:04]: Initialize PlayerStatsV Plugin
[2015-08-10 20:31:45]: Initialize PlayerStatsV Plugin
[2015-08-10 20:32:12]: Initialize PlayerStatsV Plugin
[2015-08-10 20:32:27]: Initialize PlayerStatsV Plugin
[2015-08-10 20:32:53]: Initialize PlayerStatsV Plugin
[2015-08-10 20:33:27]: Initialize PlayerStatsV Plugin
[2015-08-10 20:33:56]: Initialize PlayerStatsV Plugin
[2015-08-10 20:34:13]: Initialize PlayerStatsV Plugin
[2015-08-10 20:34:29]: Initialize PlayerStatsV Plugin
[2015-08-10 20:35:02]: Initialize PlayerStatsV Plugin
[2015-08-10 20:35:51]: Initialize PlayerStatsV Plugin
[2015-08-10 20:40:33]: Initialize PlayerStatsV Plugin
[2015-08-10 20:40:51]: Initialize PlayerStatsV Plugin
[2015-08-10 20:45:10]: Initialize PlayerStatsV Plugin
[2015-08-10 20:45:44]: Initialize PlayerStatsV Plugin
[2015-08-10 20:49:05]: Initialize PlayerStatsV Plugin
[2015-08-11 14:43:47]: Initialize PlayerStatsV Plugin
[2015-08-11 14:47:12]: Initialize PlayerStatsV Plugin
[2015-08-11 14:48:42]: Initialize PlayerStatsV Plugin
[2015-08-11 14:50:13]: Initialize PlayerStatsV Plugin
[2015-08-11 14:51:57]: Initialize PlayerStatsV Plugin
[2015-08-11 14:52:53]: Initialize PlayerStatsV Plugin
[2015-08-11 14:55:06]: Initialize PlayerStatsV Plugin
[2015-08-11 15:02:58]: Initialize PlayerStatsV Plugin
[2015-08-11 15:04:55]: Initialize PlayerStatsV Plugin
[2015-08-11 15:06:49]: Initialize PlayerStatsV Plugin
[2015-08-11 15:33:27]: Initialize PlayerStatsV Plugin
[2015-08-11 15:34:33]: Initialize PlayerStatsV Plugin
[2015-08-11 15:39:03]: Initialize PlayerStatsV Plugin
[2015-08-11 15:40:58]: Initialize PlayerStatsV Plugin
[2015-08-11 15:43:08]: Initialize PlayerStatsV Plugin
[2015-08-11 16:03:01]: Initialize PlayerStatsV Plugin
[2015-08-11 22:37:40]: Initialize PlayerStatsV Plugin
[2015-08-11 22:41:24]: Initialize PlayerStatsV Plugin
[2015-08-11 22:44:20]: Initialize PlayerStatsV Plugin
[2015-08-11 22:45:24]: Initialize PlayerStatsV Plugin
[2015-08-11 22:46:02]: Initialize PlayerStatsV Plugin
[2015-08-11 22:58:47]: Initialize PlayerStatsV Plugin
[2015-08-11 23:00:46]: Initialize PlayerStatsV Plugin
[2015-08-11 23:03:13]: Initialize PlayerStatsV Plugin
[2015-08-11 23:05:19]: Initialize PlayerStatsV Plugin
[2015-08-11 23:07:30]: Initialize PlayerStatsV Plugin
[2015-08-11 23:10:04]: Initialize PlayerStatsV Plugin
[2015-08-11 23:11:05]: Initialize PlayerStatsV Plugin
[2015-08-11 23:15:28]: Initialize PlayerStatsV Plugin
[2015-08-11 23:16:26]: Initialize PlayerStatsV Plugin
[2015-08-11 23:19:11]: Initialize PlayerStatsV Plugin
[2015-08-11 23:23:24]: Initialize PlayerStatsV Plugin
[2015-08-12 10:52:22]: Initialize PlayerStatsV Plugin
[2015-08-12 11:33:20]: Initialize PlayerStatsV Plugin
[2015-08-12 11:35:44]: Initialize PlayerStatsV Plugin
[2015-08-12 11:39:35]: Initialize PlayerStatsV Plugin
[2015-08-12 11:45:00]: Initialize PlayerStatsV Plugin
[2015-08-12 11:47:13]: Initialize PlayerStatsV Plugin
[2015-08-12 11:48:24]: Initialize PlayerStatsV Plugin
[2015-08-12 11:48:52]: Initialize PlayerStatsV Plugin
[2015-08-12 11:49:36]: Initialize PlayerStatsV Plugin
[2015-08-12 11:52:24]: Initialize PlayerStatsV Plugin
[2015-08-12 11:53:55]: Initialize PlayerStatsV Plugin
[2015-08-12 11:57:40]: Initialize PlayerStatsV Plugin
[2015-08-12 11:58:08]: Initialize PlayerStatsV Plugin
[2015-08-12 11:58:43]: Initialize PlayerStatsV Plugin
[2015-08-12 12:00:20]: Initialize PlayerStatsV Plugin
[2015-08-12 12:01:27]: Initialize PlayerStatsV Plugin
[2015-08-12 12:03:09]: Initialize PlayerStatsV Plugin
[2015-08-12 12:03:59]: Initialize PlayerStatsV Plugin
[2015-08-12 12:08:41]: Initialize PlayerStatsV Plugin
[2015-08-12 12:09:25]: Initialize PlayerStatsV Plugin
[2015-08-12 12:10:03]: Initialize PlayerStatsV Plugin
[2015-08-12 12:10:38]: Initialize PlayerStatsV Plugin
[2015-08-12 12:11:29]: Initialize PlayerStatsV Plugin
[2015-08-12 12:14:03]: Initialize PlayerStatsV Plugin
[2015-08-12 12:14:10]: Initialize PlayerStatsV Plugin
[2015-08-12 12:14:51]: Initialize PlayerStatsV Plugin
[2015-08-12 12:15:23]: Initialize PlayerStatsV Plugin
[2015-08-12 12:17:53]: Initialize PlayerStatsV Plugin
[2015-08-12 15:21:40]: Initialize PlayerStatsV Plugin
[2015-08-12 15:22:28]: Initialize PlayerStatsV Plugin
[2015-08-12 15:22:50]: Initialize PlayerStatsV Plugin
[2015-08-12 15:31:13]: Initialize PlayerStatsV Plugin
[2015-08-12 15:34:21]: Initialize PlayerStatsV Plugin
[2015-08-12 15:36:03]: Initialize PlayerStatsV Plugin
[2015-08-12 15:38:46]: Initialize PlayerStatsV Plugin
[2015-08-12 15:40:19]: Initialize PlayerStatsV Plugin
[2015-08-12 15:42:06]: Initialize PlayerStatsV Plugin
[2015-08-12 15:43:29]: Initialize PlayerStatsV Plugin
[2015-08-12 15:44:43]: Initialize PlayerStatsV Plugin
[2015-08-12 15:46:53]: Initialize PlayerStatsV Plugin
[2015-08-12 15:56:30]: Initialize PlayerStatsV Plugin
[2015-08-12 15:58:31]: Initialize PlayerStatsV Plugin
[2015-08-12 15:59:03]: Initialize PlayerStatsV Plugin
[2015-08-13 17:57:28]: Initialize PlayerStatsV Plugin
[2015-08-13 17:57:43]: Initialize PlayerStatsV Plugin
[2015-08-13 18:00:33]: Initialize PlayerStatsV Plugin
[2015-08-13 18:04:33]: Initialize PlayerStatsV Plugin
[2015-08-13 18:05:17]: Initialize PlayerStatsV Plugin
[2015-08-13 18:05:31]: Initialize PlayerStatsV Plugin
[2015-08-13 19:31:37]: Initialize PlayerStatsV Plugin
[2015-08-13 19:32:27]: Initialize PlayerStatsV Plugin
[2015-08-13 19:39:30]: Initialize PlayerStatsV Plugin
[2015-08-13 19:41:37]: Initialize PlayerStatsV Plugin
[2015-08-13 19:43:45]: Initialize PlayerStatsV Plugin
[2015-08-13 19:44:56]: Initialize PlayerStatsV Plugin
[2015-08-13 19:45:06]: Initialize PlayerStatsV Plugin
[2015-08-13 20:03:45]: Initialize PlayerStatsV Plugin
[2015-08-13 22:19:01]: Initialize PlayerStatsV Plugin
[2015-08-13 23:08:24]: Initialize PlayerStatsV Plugin
[2015-08-13 23:08:46]: Initialize PlayerStatsV Plugin
[2015-08-13 23:09:45]: Initialize PlayerStatsV Plugin
[2015-08-13 23:41:39]: Initialize PlayerStatsV Plugin
[2015-08-13 23:44:09]: Initialize PlayerStatsV Plugin
[2015-08-13 23:45:01]: Initialize PlayerStatsV Plugin
[2015-08-13 23:45:50]: Initialize PlayerStatsV Plugin
[2015-08-13 23:47:03]: Initialize PlayerStatsV Plugin
[2015-08-13 23:51:56]: Initialize PlayerStatsV Plugin
[2015-08-13 23:54:34]: Initialize PlayerStatsV Plugin
[2015-08-13 23:56:34]: Initialize PlayerStatsV Plugin
[2015-08-13 23:58:06]: Initialize PlayerStatsV Plugin
[2015-08-13 23:58:24]: Initialize PlayerStatsV Plugin
[2015-08-13 23:59:06]: Initialize PlayerStatsV Plugin
[2015-08-13 23:59:53]: Initialize PlayerStatsV Plugin
[2015-08-14 00:00:25]: Initialize PlayerStatsV Plugin
[2015-08-14 14:23:46]: Initialize PlayerStatsV Plugin
[2015-08-14 14:25:19]: Initialize PlayerStatsV Plugin
[2015-08-14 14:25:33]: Initialize PlayerStatsV Plugin
[2015-08-14 14:58:39]: Initialize PlayerStatsV Plugin
[2015-08-14 15:01:01]: Initialize PlayerStatsV Plugin
[2015-08-14 15:02:45]: Initialize PlayerStatsV Plugin
[2015-08-14 15:03:13]: Initialize PlayerStatsV Plugin
[2015-08-14 15:04:37]: Initialize PlayerStatsV Plugin
[2015-08-14 15:05:50]: Initialize PlayerStatsV Plugin
[2015-08-14 15:07:05]: Initialize PlayerStatsV Plugin
[2015-08-14 15:59:34]: Initialize PlayerStatsV Plugin
[2015-08-14 16:02:08]: Initialize PlayerStatsV Plugin
[2015-08-14 16:03:32]: Initialize PlayerStatsV Plugin
[2015-08-14 16:03:54]: Initialize PlayerStatsV Plugin
[2015-08-14 16:09:59]: Initialize PlayerStatsV Plugin
[2015-08-14 16:10:31]: Initialize PlayerStatsV Plugin
[2015-08-14 16:11:02]: Initialize PlayerStatsV Plugin
[2015-08-14 16:15:25]: Initialize PlayerStatsV Plugin
[2015-08-14 16:15:40]: Initialize PlayerStatsV Plugin
[2015-08-14 16:15:58]: Initialize PlayerStatsV Plugin
[2015-08-14 16:17:08]: Initialize PlayerStatsV Plugin
[2015-08-14 16:17:29]: Initialize PlayerStatsV Plugin
[2015-08-14 16:18:18]: Initialize PlayerStatsV Plugin
[2015-08-14 16:19:17]: Initialize PlayerStatsV Plugin
[2015-08-14 16:19:29]: Initialize PlayerStatsV Plugin
[2015-08-14 16:19:56]: Initialize PlayerStatsV Plugin
[2015-08-14 16:22:06]: Initialize PlayerStatsV Plugin
[2015-08-14 16:23:51]: Initialize PlayerStatsV Plugin
[2015-08-14 16:24:44]: Initialize PlayerStatsV Plugin
[2015-08-14 16:25:05]: Initialize PlayerStatsV Plugin
[2015-08-14 16:26:16]: Initialize PlayerStatsV Plugin
[2015-08-14 16:26:33]: Initialize PlayerStatsV Plugin
[2015-08-14 16:27:38]: Initialize PlayerStatsV Plugin
[2015-08-14 16:27:52]: Initialize PlayerStatsV Plugin
[2015-08-14 16:28:47]: Initialize PlayerStatsV Plugin
[2015-08-14 16:33:02]: Initialize PlayerStatsV Plugin
[2015-08-14 16:35:37]: Initialize PlayerStatsV Plugin
[2015-08-14 16:37:34]: Initialize PlayerStatsV Plugin
[2015-08-14 16:37:58]: Initialize PlayerStatsV Plugin
[2015-08-14 16:49:51]: Initialize PlayerStatsV Plugin
[2015-08-15 11:53:16]: Initialize PlayerStatsV Plugin
[2015-08-15 11:55:25]: Initialize PlayerStatsV Plugin
[2015-08-15 11:56:30]: Initialize PlayerStatsV Plugin
[2015-08-15 11:58:10]: Initialize PlayerStatsV Plugin
[2015-08-15 11:58:33]: Initialize PlayerStatsV Plugin
[2015-08-15 11:58:49]: Initialize PlayerStatsV Plugin
[2015-08-15 11:59:21]: Initialize PlayerStatsV Plugin
[2015-08-15 11:59:37]: Initialize PlayerStatsV Plugin
[2015-08-15 12:02:19]: Initialize PlayerStatsV Plugin
[2015-08-15 12:03:52]: Initialize PlayerStatsV Plugin
[2015-08-15 12:05:01]: Initialize PlayerStatsV Plugin
[2015-08-15 12:06:10]: Initialize PlayerStatsV Plugin
[2015-08-15 12:07:48]: Initialize PlayerStatsV Plugin
[2015-08-15 12:09:32]: Initialize PlayerStatsV Plugin
[2015-08-15 12:09:56]: Initialize PlayerStatsV Plugin
[2015-08-15 12:10:30]: Initialize PlayerStatsV Plugin
[2015-08-15 12:43:23]: Initialize PlayerStatsV Plugin
[2015-08-15 12:44:01]: Initialize PlayerStatsV Plugin
[2015-08-15 12:44:14]: Initialize PlayerStatsV Plugin
[2015-08-15 12:44:50]: Initialize PlayerStatsV Plugin
[2015-08-15 12:45:59]: Initialize PlayerStatsV Plugin
[2015-08-15 12:46:15]: Initialize PlayerStatsV Plugin
[2015-08-15 12:49:39]: Initialize PlayerStatsV Plugin
[2015-08-15 12:50:08]: Initialize PlayerStatsV Plugin
[2015-08-15 12:55:58]: Initialize PlayerStatsV Plugin
[2015-08-15 12:56:18]: Initialize PlayerStatsV Plugin
[2015-08-15 12:57:33]: Initialize PlayerStatsV Plugin
[2015-08-15 12:59:29]: Initialize PlayerStatsV Plugin
[2015-08-15 13:00:30]: Initialize PlayerStatsV Plugin
[2015-08-15 13:54:53]: Initialize PlayerStatsV Plugin
[2015-08-15 13:55:28]: Initialize PlayerStatsV Plugin
[2015-08-15 13:56:17]: Initialize PlayerStatsV Plugin
[2015-08-15 13:56:27]: Initialize PlayerStatsV Plugin
[2015-08-15 13:56:44]: Initialize PlayerStatsV Plugin
[2015-08-15 13:57:56]: Initialize PlayerStatsV Plugin
[2015-08-15 13:58:57]: Initialize PlayerStatsV Plugin
[2015-08-15 14:00:09]: Initialize PlayerStatsV Plugin
[2015-08-15 14:05:21]: Initialize PlayerStatsV Plugin
[2015-08-15 14:05:41]: Initialize PlayerStatsV Plugin
[2015-08-15 14:06:37]: Initialize PlayerStatsV Plugin
[2015-08-15 14:07:54]: Initialize PlayerStatsV Plugin
[2015-08-15 14:08:26]: Initialize PlayerStatsV Plugin
[2015-08-15 14:14:06]: Initialize PlayerStatsV Plugin
[2015-08-15 14:16:37]: Initialize PlayerStatsV Plugin
[2015-08-15 14:18:01]: Initialize PlayerStatsV Plugin
[2015-08-15 14:26:28]: Initialize PlayerStatsV Plugin
[2015-08-15 14:29:43]: Initialize PlayerStatsV Plugin
[2015-08-15 14:30:04]: Initialize PlayerStatsV Plugin
[2015-08-15 14:30:38]: Initialize PlayerStatsV Plugin
[2015-08-15 14:32:59]: Initialize PlayerStatsV Plugin
[2015-08-15 14:41:41]: Initialize PlayerStatsV Plugin
[2015-08-15 14:45:00]: Initialize PlayerStatsV Plugin
[2015-08-15 14:46:27]: Initialize PlayerStatsV Plugin
[2015-08-15 14:47:21]: Initialize PlayerStatsV Plugin
[2015-08-15 14:48:20]: Initialize PlayerStatsV Plugin
[2015-08-15 14:48:34]: Initialize PlayerStatsV Plugin
[2015-08-15 14:49:05]: Initialize PlayerStatsV Plugin
[2015-08-15 14:49:58]: Initialize PlayerStatsV Plugin
[2015-08-15 14:51:27]: Initialize PlayerStatsV Plugin
[2015-08-15 14:52:20]: Initialize PlayerStatsV Plugin
[2015-08-15 14:53:06]: Initialize PlayerStatsV Plugin
[2015-08-15 14:54:42]: Initialize PlayerStatsV Plugin
[2015-08-15 14:55:56]: Initialize PlayerStatsV Plugin
[2015-08-15 14:56:48]: Initialize PlayerStatsV Plugin
[2015-08-15 14:58:54]: Initialize PlayerStatsV Plugin
[2015-08-15 15:00:15]: Initialize PlayerStatsV Plugin
[2015-08-15 15:00:36]: Initialize PlayerStatsV Plugin
[2015-08-15 15:02:21]: Initialize PlayerStatsV Plugin
[2015-08-15 15:02:42]: Initialize PlayerStatsV Plugin
[2015-08-15 15:03:41]: Initialize PlayerStatsV Plugin
[2015-08-15 15:04:49]: Initialize PlayerStatsV Plugin
[2015-08-15 15:09:17]: Initialize PlayerStatsV Plugin
[2015-08-15 15:10:07]: Initialize PlayerStatsV Plugin
[2015-08-15 15:10:50]: Initialize PlayerStatsV Plugin
[2015-08-15 15:11:59]: Initialize PlayerStatsV Plugin
[2015-08-15 15:15:51]: Initialize PlayerStatsV Plugin
[2015-08-15 15:18:42]: Initialize PlayerStatsV Plugin
[2015-08-15 15:27:37]: Initialize PlayerStatsV Plugin
[2015-08-15 15:29:21]: Initialize PlayerStatsV Plugin
[2015-08-15 15:30:09]: Initialize PlayerStatsV Plugin
[2015-08-15 15:31:54]: Initialize PlayerStatsV Plugin
[2015-08-15 15:38:42]: Initialize PlayerStatsV Plugin
[2015-08-15 15:41:26]: Initialize PlayerStatsV Plugin
[2015-08-15 18:18:37]: Initialize PlayerStatsV Plugin
[2015-08-15 18:21:07]: Initialize PlayerStatsV Plugin
[2015-08-15 18:23:38]: Initialize PlayerStatsV Plugin
[2015-08-15 18:26:37]: Initialize PlayerStatsV Plugin
[2015-08-15 18:29:47]: Initialize PlayerStatsV Plugin
[2015-08-15 18:30:48]: Initialize PlayerStatsV Plugin
[2015-08-15 18:38:50]: Initialize PlayerStatsV Plugin
[2015-08-15 18:42:39]: Initialize PlayerStatsV Plugin
[2015-08-15 18:44:25]: Initialize PlayerStatsV Plugin
[2015-08-15 18:47:13]: Initialize PlayerStatsV Plugin
[2015-08-15 18:53:05]: Initialize PlayerStatsV Plugin
[2015-08-15 18:53:58]: Initialize PlayerStatsV Plugin
[2015-08-15 18:55:03]: Initialize PlayerStatsV Plugin
[2015-08-15 18:55:57]: Initialize PlayerStatsV Plugin
[2015-08-15 18:56:20]: Initialize PlayerStatsV Plugin
[2015-08-15 18:56:33]: Initialize PlayerStatsV Plugin
[2015-08-15 18:57:08]: Initialize PlayerStatsV Plugin
[2015-08-15 18:57:38]: Initialize PlayerStatsV Plugin
[2015-08-15 18:58:11]: Initialize PlayerStatsV Plugin
[2015-08-15 19:03:52]: Initialize PlayerStatsV Plugin
[2015-08-15 19:04:43]: Initialize PlayerStatsV Plugin
[2015-08-15 19:46:08]: Initialize PlayerStatsV Plugin
[2015-08-15 19:49:13]: Initialize PlayerStatsV Plugin
[2015-08-15 19:55:39]: Initialize PlayerStatsV Plugin
[2015-08-15 20:02:50]: Initialize PlayerStatsV Plugin
[2015-08-15 20:05:35]: Initialize PlayerStatsV Plugin
[2015-08-15 20:49:36]: Initialize PlayerStatsV Plugin
[2015-08-15 20:50:06]: Initialize PlayerStatsV Plugin
[2015-08-15 20:51:19]: Initialize PlayerStatsV Plugin
[2015-08-15 20:51:39]: Initialize PlayerStatsV Plugin
[2015-08-15 20:55:20]: Initialize PlayerStatsV Plugin
[2015-08-15 20:55:55]: Initialize PlayerStatsV Plugin
[2015-08-15 20:57:07]: Initialize PlayerStatsV Plugin
[2015-08-15 20:58:31]: Initialize PlayerStatsV Plugin
[2015-08-15 20:59:37]: Initialize PlayerStatsV Plugin
[2015-08-15 21:01:48]: Initialize PlayerStatsV Plugin
[2015-08-15 21:03:44]: Initialize PlayerStatsV Plugin
[2015-08-15 21:04:44]: Initialize PlayerStatsV Plugin
[2015-08-15 21:06:09]: Initialize PlayerStatsV Plugin
[2015-08-15 21:06:47]: Initialize PlayerStatsV Plugin
[2015-08-15 21:07:38]: Initialize PlayerStatsV Plugin
[2015-08-15 21:08:09]: Initialize PlayerStatsV Plugin
[2015-08-15 21:08:51]: Initialize PlayerStatsV Plugin
[2015-08-15 21:17:04]: Initialize PlayerStatsV Plugin
[2015-08-15 21:17:56]: Initialize PlayerStatsV Plugin
[2015-08-15 21:19:16]: Initialize PlayerStatsV Plugin
[2015-08-15 21:20:04]: Initialize PlayerStatsV Plugin
[2015-08-15 21:20:47]: Initialize PlayerStatsV Plugin
[2015-08-16 11:30:17]: Initialize PlayerStatsV Plugin
[2015-08-16 11:32:10]: Initialize PlayerStatsV Plugin
[2015-08-16 11:57:37]: Initialize PlayerStatsV Plugin
[2015-08-16 12:04:07]: Initialize PlayerStatsV Plugin
[2015-08-16 12:21:37]: Initialize PlayerStatsV Plugin
[2015-08-16 12:58:14]: Initialize PlayerStatsV Plugin
[2015-08-16 13:02:11]: Initialize PlayerStatsV Plugin
[2015-08-16 13:04:54]: Initialize PlayerStatsV Plugin
[2015-08-16 13:05:40]: Initialize PlayerStatsV Plugin
[2015-08-16 14:55:22]: Initialize PlayerStatsV Plugin
[2015-08-16 14:55:58]: Initialize PlayerStatsV Plugin
[2015-08-16 15:05:42]: Initialize PlayerStatsV Plugin
[2015-08-16 15:13:32]: Initialize PlayerStatsV Plugin
[2015-08-16 15:14:52]: Initialize PlayerStatsV Plugin
[2015-08-16 15:16:03]: Initialize PlayerStatsV Plugin
[2015-08-16 15:17:36]: Initialize PlayerStatsV Plugin
[2015-08-16 15:18:49]: Initialize PlayerStatsV Plugin
[2015-08-16 15:23:10]: Initialize PlayerStatsV Plugin
[2015-08-16 15:24:34]: Initialize PlayerStatsV Plugin
[2015-08-16 15:25:29]: Initialize PlayerStatsV Plugin
[2015-08-16 15:30:24]: Initialize PlayerStatsV Plugin
[2015-08-16 15:31:27]: Initialize PlayerStatsV Plugin
[2015-08-16 15:31:37]: Initialize PlayerStatsV Plugin
[2015-08-16 15:34:04]: Initialize PlayerStatsV Plugin
[2015-08-16 15:35:12]: Initialize PlayerStatsV Plugin
[2015-08-16 15:45:58]: Initialize PlayerStatsV Plugin
[2015-08-16 15:47:05]: Initialize PlayerStatsV Plugin
[2015-08-16 15:48:14]: Initialize PlayerStatsV Plugin
[2015-08-16 15:49:17]: Initialize PlayerStatsV Plugin
[2015-08-16 15:52:03]: Initialize PlayerStatsV Plugin
[2015-08-16 15:54:17]: Initialize PlayerStatsV Plugin
[2015-08-16 15:56:45]: Initialize PlayerStatsV Plugin
[2015-08-16 15:57:50]: Initialize PlayerStatsV Plugin
[2015-08-16 15:58:27]: Initialize PlayerStatsV Plugin
[2015-08-16 15:59:34]: Initialize PlayerStatsV Plugin
[2015-08-16 16:00:57]: Initialize PlayerStatsV Plugin
[2015-08-16 16:01:56]: Initialize PlayerStatsV Plugin
[2015-08-16 16:02:08]: Initialize PlayerStatsV Plugin
[2015-08-16 16:02:16]: Initialize PlayerStatsV Plugin
[2015-08-16 16:03:39]: Initialize PlayerStatsV Plugin
[2015-08-16 16:04:13]: Initialize PlayerStatsV Plugin
[2015-08-16 16:05:07]: Initialize PlayerStatsV Plugin
[2015-08-16 16:05:45]: Initialize PlayerStatsV Plugin
[2015-08-16 20:50:09]: Initialize PlayerStatsV Plugin
[2015-08-16 20:57:35]: Initialize PlayerStatsV Plugin
[2015-08-16 20:58:58]: Initialize PlayerStatsV Plugin
[2015-08-16 21:01:10]: Initialize PlayerStatsV Plugin
[2015-08-16 21:02:28]: Initialize PlayerStatsV Plugin
[2015-08-16 21:03:43]: Initialize PlayerStatsV Plugin
[2015-08-16 21:15:05]: Initialize PlayerStatsV Plugin
[2015-08-16 21:15:30]: Initialize PlayerStatsV Plugin
[2015-08-16 21:17:10]: Initialize PlayerStatsV Plugin
[2015-08-16 21:18:14]: Initialize PlayerStatsV Plugin
[2015-08-16 21:18:34]: Initialize PlayerStatsV Plugin
[2015-08-16 21:18:51]: Initialize PlayerStatsV Plugin
[2015-08-16 21:19:03]: Initialize PlayerStatsV Plugin
[2015-08-16 21:20:00]: Initialize PlayerStatsV Plugin
[2015-08-16 21:20:27]: Initialize PlayerStatsV Plugin
[2015-08-16 21:21:01]: Initialize PlayerStatsV Plugin
[2015-08-16 21:21:24]: Initialize PlayerStatsV Plugin
[2015-08-16 21:21:31]: Initialize PlayerStatsV Plugin
[2015-08-16 21:21:52]: Initialize PlayerStatsV Plugin
[2015-08-16 21:22:11]: Initialize PlayerStatsV Plugin
[2015-08-16 21:24:29]: Initialize PlayerStatsV Plugin
[2015-08-16 21:28:21]: Initialize PlayerStatsV Plugin
[2015-08-16 21:28:48]: Initialize PlayerStatsV Plugin
[2015-08-16 21:33:43]: Initialize PlayerStatsV Plugin
[2015-08-16 21:36:48]: Initialize PlayerStatsV Plugin
[2015-08-16 21:37:42]: Initialize PlayerStatsV Plugin
[2015-08-16 21:38:14]: Initialize PlayerStatsV Plugin
[2015-08-16 21:40:43]: Initialize PlayerStatsV Plugin
[2015-08-16 21:41:58]: Initialize PlayerStatsV Plugin
[2015-08-16 21:42:21]: Initialize PlayerStatsV Plugin
[2015-08-16 21:43:55]: Initialize PlayerStatsV Plugin
[2015-08-16 21:47:18]: Initialize PlayerStatsV Plugin
[2015-08-16 21:51:01]: Initialize PlayerStatsV Plugin
[2015-08-16 21:51:28]: Initialize PlayerStatsV Plugin
[2015-08-16 21:51:44]: Initialize PlayerStatsV Plugin
[2015-08-16 21:57:13]: Initialize PlayerStatsV Plugin
[2015-08-16 22:04:15]: Initialize PlayerStatsV Plugin
[2015-08-16 22:05:53]: Initialize PlayerStatsV Plugin
[2015-08-16 22:06:32]: Initialize PlayerStatsV Plugin
[2015-08-16 22:10:20]: Initialize PlayerStatsV Plugin
[2015-08-16 22:14:37]: Initialize PlayerStatsV Plugin
[2015-08-16 22:15:34]: Initialize PlayerStatsV Plugin
[2015-08-16 22:18:44]: Initialize PlayerStatsV Plugin
[2015-08-16 22:19:55]: Initialize PlayerStatsV Plugin
[2015-08-16 22:21:09]: Initialize PlayerStatsV Plugin
[2015-08-17 00:47:43]: Initialize PlayerStatsV Plugin
[2015-08-17 00:50:34]: Initialize PlayerStatsV Plugin
[2015-08-17 00:54:22]: Initialize PlayerStatsV Plugin
[2015-08-17 00:55:24]: Initialize PlayerStatsV Plugin
[2015-08-17 00:59:18]: Initialize PlayerStatsV Plugin
[2015-08-17 00:59:58]: Initialize PlayerStatsV Plugin
[2015-08-17 01:01:36]: Initialize PlayerStatsV Plugin
[2015-08-17 01:02:31]: Initialize PlayerStatsV Plugin
[2015-08-17 01:03:12]: Initialize PlayerStatsV Plugin
[2015-08-17 01:07:34]: Initialize PlayerStatsV Plugin
[2015-08-17 01:10:44]: Initialize PlayerStatsV Plugin
[2015-08-17 01:21:28]: Initialize PlayerStatsV Plugin
[2015-08-17 01:22:38]: Initialize PlayerStatsV Plugin
[2015-08-17 01:24:22]: Initialize PlayerStatsV Plugin
[2015-08-17 01:27:29]: Initialize PlayerStatsV Plugin
[2015-08-17 16:53:10]: Initialize PlayerStatsV Plugin
[2015-08-17 16:53:30]: Initialize PlayerStatsV Plugin
[2015-08-17 16:54:46]: Initialize PlayerStatsV Plugin
[2015-08-17 16:55:59]: Initialize PlayerStatsV Plugin
[2015-08-17 16:58:14]: Initialize PlayerStatsV Plugin
[2015-08-17 16:59:52]: Initialize PlayerStatsV Plugin
[2015-08-17 20:44:12]: Initialize PlayerStatsV Plugin
[2015-08-17 20:47:05]: Initialize PlayerStatsV Plugin
[2015-08-17 20:49:32]: Initialize PlayerStatsV Plugin
[2015-08-17 20:51:06]: Initialize PlayerStatsV Plugin
[2015-08-17 20:53:21]: Initialize PlayerStatsV Plugin
[2015-08-17 20:54:19]: Initialize PlayerStatsV Plugin
[2015-08-17 20:54:54]: Initialize PlayerStatsV Plugin
[2015-08-17 20:56:16]: Initialize PlayerStatsV Plugin
[2015-08-17 20:56:46]: Initialize PlayerStatsV Plugin
[2015-08-17 20:57:10]: Initialize PlayerStatsV Plugin
[2015-08-17 21:10:29]: Initialize PlayerStatsV Plugin
[2015-08-17 21:12:35]: Initialize PlayerStatsV Plugin
[2015-08-17 21:13:19]: Initialize PlayerStatsV Plugin
[2015-08-17 21:16:40]: Initialize PlayerStatsV Plugin
[2015-08-17 21:18:01]: Initialize PlayerStatsV Plugin
[2015-08-17 21:20:44]: Initialize PlayerStatsV Plugin
[2015-08-17 21:24:55]: Initialize PlayerStatsV Plugin
[2015-08-17 21:25:08]: Initialize PlayerStatsV Plugin
[2015-08-17 21:28:50]: Initialize PlayerStatsV Plugin
[2015-08-17 21:31:14]: Initialize PlayerStatsV Plugin
[2015-08-17 21:38:15]: Initialize PlayerStatsV Plugin
[2015-08-17 21:39:12]: Initialize PlayerStatsV Plugin
[2015-08-17 21:40:30]: Initialize PlayerStatsV Plugin
[2015-08-18 13:17:52]: Initialize PlayerStatsV Plugin
[2015-08-18 13:20:43]: Initialize PlayerStatsV Plugin
[2015-08-18 13:22:41]: Initialize PlayerStatsV Plugin
[2015-08-18 13:24:33]: Initialize PlayerStatsV Plugin
[2015-08-18 13:27:18]: Initialize PlayerStatsV Plugin
[2015-08-18 13:27:37]: Initialize PlayerStatsV Plugin
[2015-08-18 13:29:34]: Initialize PlayerStatsV Plugin
[2015-08-18 13:31:47]: Initialize PlayerStatsV Plugin
[2015-08-18 13:32:59]: Initialize PlayerStatsV Plugin
[2015-08-18 13:38:32]: Initialize PlayerStatsV Plugin
[2015-08-18 18:31:40]: Initialize PlayerStatsV Plugin
[2015-08-18 18:38:39]: Initialize PlayerStatsV Plugin
[2015-08-18 18:39:35]: Initialize PlayerStatsV Plugin
[2015-08-18 18:40:49]: Initialize PlayerStatsV Plugin
[2015-08-18 18:41:13]: Initialize PlayerStatsV Plugin
[2015-08-18 18:42:27]: Initialize PlayerStatsV Plugin
[2015-08-18 18:45:01]: Initialize PlayerStatsV Plugin
[2015-08-18 18:48:20]: Initialize PlayerStatsV Plugin
[2015-08-18 18:49:20]: Initialize PlayerStatsV Plugin
[2015-08-18 18:49:28]: Initialize PlayerStatsV Plugin
[2015-08-18 19:34:54]: Initialize PlayerStatsV Plugin
[2015-08-18 19:36:20]: Initialize PlayerStatsV Plugin
[2015-08-18 19:38:29]: Initialize PlayerStatsV Plugin
[2015-08-18 19:46:21]: Initialize PlayerStatsV Plugin
[2015-08-18 20:13:26]: Initialize PlayerStatsV Plugin
[2015-08-18 20:15:58]: Initialize PlayerStatsV Plugin
[2015-08-18 20:16:07]: Initialize PlayerStatsV Plugin
[2015-08-18 20:17:20]: Initialize PlayerStatsV Plugin
[2015-08-18 20:18:54]: Initialize PlayerStatsV Plugin
[2015-08-18 20:20:03]: Initialize PlayerStatsV Plugin
[2015-08-18 20:21:31]: Initialize PlayerStatsV Plugin
[2015-08-18 20:22:42]: Initialize PlayerStatsV Plugin
[2015-08-18 20:24:18]: Initialize PlayerStatsV Plugin
[2015-08-21 11:17:44]: Initialize PlayerStatsV Plugin
[2015-08-21 11:18:16]: Initialize PlayerStatsV Plugin
[2015-08-21 11:27:44]: Initialize PlayerStatsV Plugin
[2015-08-21 11:29:33]: Initialize PlayerStatsV Plugin
[2015-08-21 11:31:21]: Initialize PlayerStatsV Plugin
[2015-08-21 11:32:25]: Initialize PlayerStatsV Plugin
[2015-08-21 11:32:35]: Initialize PlayerStatsV Plugin
[2015-08-21 11:33:25]: Initialize PlayerStatsV Plugin
[2015-08-22 15:01:12]: Initialize PlayerStatsV Plugin
[2015-08-22 15:02:08]: Initialize PlayerStatsV Plugin
[2015-08-22 15:03:13]: Initialize PlayerStatsV Plugin
[2015-08-22 15:03:26]: Initialize PlayerStatsV Plugin
[2015-08-22 15:03:53]: Initialize PlayerStatsV Plugin
[2015-08-22 15:04:49]: Initialize PlayerStatsV Plugin
[2015-08-22 15:05:14]: Initialize PlayerStatsV Plugin
[2015-08-22 15:05:27]: Initialize PlayerStatsV Plugin
[2015-08-22 15:13:32]: Initialize PlayerStatsV Plugin
[2015-08-22 15:23:17]: Initialize PlayerStatsV Plugin
[2015-08-22 15:32:21]: Initialize PlayerStatsV Plugin
[2015-08-22 15:34:01]: Initialize PlayerStatsV Plugin
[2015-08-22 15:35:24]: Initialize PlayerStatsV Plugin
[2015-08-22 15:36:11]: Initialize PlayerStatsV Plugin
[2015-08-22 15:40:10]: Initialize PlayerStatsV Plugin
[2015-08-22 15:42:21]: Initialize PlayerStatsV Plugin
[2015-08-22 15:49:15]: Initialize PlayerStatsV Plugin
[2015-08-22 15:49:24]: Initialize PlayerStatsV Plugin
[2015-08-22 15:51:11]: Initialize PlayerStatsV Plugin
[2015-08-22 15:52:36]: Initialize PlayerStatsV Plugin
[2015-08-22 15:53:49]: Initialize PlayerStatsV Plugin
[2015-08-22 15:53:57]: Initialize PlayerStatsV Plugin
[2015-08-22 15:54:58]: Initialize PlayerStatsV Plugin
[2015-08-22 15:56:05]: Initialize PlayerStatsV Plugin
[2015-08-22 16:46:40]: Initialize PlayerStatsV Plugin
[2015-08-22 17:00:06]: Initialize PlayerStatsV Plugin
[2015-08-22 17:14:44]: Initialize PlayerStatsV Plugin
[2015-08-22 17:21:42]: Initialize PlayerStatsV Plugin
[2015-08-22 17:30:27]: Initialize PlayerStatsV Plugin
[2015-08-22 17:33:52]: Initialize PlayerStatsV Plugin
[2015-08-22 17:49:09]: Initialize PlayerStatsV Plugin
[2015-08-22 17:53:54]: Initialize PlayerStatsV Plugin
[2015-08-22 17:55:34]: Initialize PlayerStatsV Plugin
[2015-08-22 19:29:56]: Initialize PlayerStatsV Plugin
[2015-08-22 19:34:44]: Initialize PlayerStatsV Plugin
[2015-08-22 19:35:15]: Initialize PlayerStatsV Plugin
[2015-08-22 19:35:59]: Initialize PlayerStatsV Plugin
[2015-08-27 11:14:29]: Initialize PlayerStatsV Plugin
[2015-08-27 11:18:54]: Initialize PlayerStatsV Plugin
[2015-08-27 11:19:30]: Initialize PlayerStatsV Plugin
[2015-08-27 11:22:15]: Initialize PlayerStatsV Plugin
[2015-08-27 11:22:47]: Initialize PlayerStatsV Plugin
[2015-08-27 11:23:33]: Initialize PlayerStatsV Plugin
[2015-08-28 10:07:18]: Initialize PlayerStatsV Plugin
[2015-08-28 10:09:22]: Initialize PlayerStatsV Plugin
[2015-08-28 10:28:52]: Initialize PlayerStatsV Plugin
[2015-08-28 10:29:39]: Initialize PlayerStatsV Plugin
[2015-08-28 10:29:48]: Initialize PlayerStatsV Plugin
[2015-08-28 10:30:29]: Initialize PlayerStatsV Plugin
[2015-08-28 10:31:02]: Initialize PlayerStatsV Plugin
[2015-08-28 10:31:35]: Initialize PlayerStatsV Plugin
[2015-08-29 21:52:34]: Initialize PlayerStatsV Plugin
[2015-08-29 21:53:12]: Initialize PlayerStatsV Plugin
[2015-08-29 21:53:45]: Initialize PlayerStatsV Plugin
[2015-08-30 21:03:21]: Initialize PlayerStatsV Plugin
[2015-08-30 21:03:30]: Initialize PlayerStatsV Plugin
[2015-08-30 21:04:32]: Initialize PlayerStatsV Plugin
[2015-08-30 21:08:30]: Initialize PlayerStatsV Plugin
[2015-08-30 21:09:16]: Initialize PlayerStatsV Plugin
[2015-08-30 21:09:23]: Initialize PlayerStatsV Plugin
[2015-08-31 15:57:36]: Initialize PlayerStatsV Plugin
[2015-08-31 15:58:06]: Initialize PlayerStatsV Plugin
[2015-08-31 16:00:25]: Initialize PlayerStatsV Plugin
[2015-08-31 16:03:05]: Initialize PlayerStatsV Plugin
[2015-08-31 16:04:04]: Initialize PlayerStatsV Plugin
[2015-08-31 16:04:13]: Initialize PlayerStatsV Plugin
[2015-08-31 16:05:30]: Initialize PlayerStatsV Plugin
[2015-08-31 16:06:25]: Initialize PlayerStatsV Plugin
[2015-08-31 16:14:20]: Initialize PlayerStatsV Plugin
[2015-08-31 16:16:38]: Initialize PlayerStatsV Plugin
[2015-08-31 16:17:41]: Initialize PlayerStatsV Plugin
[2015-08-31 16:19:47]: Initialize PlayerStatsV Plugin
[2015-08-31 16:20:38]: Initialize PlayerStatsV Plugin
[2015-08-31 16:21:03]: Initialize PlayerStatsV Plugin
[2015-09-01 16:36:05]: Initialize PlayerStatsV Plugin
[2015-09-01 16:36:31]: Initialize PlayerStatsV Plugin
[2015-09-01 16:36:49]: Initialize PlayerStatsV Plugin
[2015-09-01 16:38:12]: Initialize PlayerStatsV Plugin
[2015-09-01 16:40:28]: Initialize PlayerStatsV Plugin
[2015-09-01 16:45:04]: Initialize PlayerStatsV Plugin
[2015-09-01 20:56:46]: Initialize PlayerStatsV Plugin
[2015-09-01 20:57:07]: Initialize PlayerStatsV Plugin
[2015-09-01 20:58:50]: Initialize PlayerStatsV Plugin
[2015-09-01 21:03:46]: Initialize PlayerStatsV Plugin
[2015-09-01 21:08:34]: Initialize PlayerStatsV Plugin
[2015-09-05 12:01:56]: Initialize PlayerStatsV Plugin
[2015-09-05 12:11:30]: Initialize PlayerStatsV Plugin
[2015-09-05 12:13:08]: Initialize PlayerStatsV Plugin
[2015-09-05 12:18:02]: Initialize PlayerStatsV Plugin
[2015-09-05 12:18:13]: Initialize PlayerStatsV Plugin
[2015-09-05 12:18:25]: Initialize PlayerStatsV Plugin
[2015-09-05 12:32:17]: Initialize PlayerStatsV Plugin
[2015-09-05 12:36:17]: Initialize PlayerStatsV Plugin
[2015-09-06 17:12:06]: Initialize PlayerStatsV Plugin
[2015-09-06 18:57:56]: Initialize PlayerStatsV Plugin
[2015-09-06 18:59:10]: Initialize PlayerStatsV Plugin
[2015-09-06 19:00:07]: Initialize PlayerStatsV Plugin
[2015-09-06 21:28:10]: Initialize PlayerStatsV Plugin
[2015-09-06 21:31:55]: Initialize PlayerStatsV Plugin
[2015-09-06 21:46:10]: Initialize PlayerStatsV Plugin
[2015-09-06 22:09:04]: Initialize PlayerStatsV Plugin
[2015-09-06 22:13:14]: Initialize PlayerStatsV Plugin
[2015-09-06 22:16:22]: Initialize PlayerStatsV Plugin
[2015-09-06 22:23:42]: Initialize PlayerStatsV Plugin
[2015-09-06 22:27:50]: Initialize PlayerStatsV Plugin
[2015-09-06 22:34:56]: Initialize PlayerStatsV Plugin
[2015-09-06 22:38:33]: Initialize PlayerStatsV Plugin
[2015-09-06 22:42:16]: Initialize PlayerStatsV Plugin
[2015-09-06 22:43:31]: Initialize PlayerStatsV Plugin
[2015-09-06 22:47:18]: Initialize PlayerStatsV Plugin
[2015-09-06 22:52:03]: Initialize PlayerStatsV Plugin
[2015-09-06 23:13:33]: Initialize PlayerStatsV Plugin
[2015-09-06 23:17:26]: Initialize PlayerStatsV Plugin
[2015-09-06 23:19:38]: Initialize PlayerStatsV Plugin
[2015-09-06 23:20:29]: Initialize PlayerStatsV Plugin
[2015-09-06 23:24:28]: Initialize PlayerStatsV Plugin
[2015-09-06 23:27:51]: Initialize PlayerStatsV Plugin
[2015-09-06 23:29:15]: Initialize PlayerStatsV Plugin
[2015-09-06 23:31:49]: Initialize PlayerStatsV Plugin
[2015-09-06 23:40:42]: Initialize PlayerStatsV Plugin
[2015-09-06 23:44:26]: Initialize PlayerStatsV Plugin
[2015-09-06 23:49:25]: Initialize PlayerStatsV Plugin
[2015-09-06 23:52:47]: Initialize PlayerStatsV Plugin
[2015-09-06 23:58:31]: Initialize PlayerStatsV Plugin
[2015-09-06 23:59:24]: Initialize PlayerStatsV Plugin
[2015-09-07 00:00:51]: Initialize PlayerStatsV Plugin
[2015-09-07 00:08:36]: Initialize PlayerStatsV Plugin
[2015-09-07 00:13:59]: Initialize PlayerStatsV Plugin
[2015-09-07 00:16:33]: Initialize PlayerStatsV Plugin
[2015-09-07 00:18:27]: Initialize PlayerStatsV Plugin
[2015-09-07 00:20:51]: Initialize PlayerStatsV Plugin
[2015-09-07 00:23:22]: Initialize PlayerStatsV Plugin
[2015-09-07 00:29:06]: Initialize PlayerStatsV Plugin
[2015-09-07 00:30:57]: Initialize PlayerStatsV Plugin
[2015-09-07 00:43:10]: Initialize PlayerStatsV Plugin
[2015-09-07 00:46:32]: Initialize PlayerStatsV Plugin
[2015-09-07 00:55:40]: Initialize PlayerStatsV Plugin
[2015-09-07 01:04:14]: Initialize PlayerStatsV Plugin
[2015-09-07 01:11:54]: Initialize PlayerStatsV Plugin
[2015-09-07 10:50:15]: Initialize PlayerStatsV Plugin
[2015-09-07 10:50:31]: Initialize PlayerStatsV Plugin
[2015-09-07 10:54:10]: Initialize PlayerStatsV Plugin
[2015-09-07 11:40:54]: Initialize PlayerStatsV Plugin
[2015-09-07 11:46:04]: Initialize PlayerStatsV Plugin
[2015-09-07 11:47:40]: Initialize PlayerStatsV Plugin
[2015-09-07 11:54:13]: Initialize PlayerStatsV Plugin
[2015-09-07 11:58:28]: Initialize PlayerStatsV Plugin
[2015-09-07 11:59:03]: Initialize PlayerStatsV Plugin
[2015-09-07 12:01:47]: Initialize PlayerStatsV Plugin
[2015-09-07 12:09:36]: Initialize PlayerStatsV Plugin
[2015-09-07 12:15:13]: Initialize PlayerStatsV Plugin
[2015-09-07 12:18:16]: Initialize PlayerStatsV Plugin
[2015-09-07 12:39:04]: Initialize PlayerStatsV Plugin
[2015-09-07 12:39:40]: Initialize PlayerStatsV Plugin
[2015-09-07 12:46:02]: Initialize PlayerStatsV Plugin
[2015-09-07 12:49:11]: Initialize PlayerStatsV Plugin
[2015-09-07 12:51:42]: Initialize PlayerStatsV Plugin
[2015-09-07 12:56:38]: Initialize PlayerStatsV Plugin
[2015-09-07 12:58:37]: Initialize PlayerStatsV Plugin
[2015-09-07 13:05:21]: Initialize PlayerStatsV Plugin
[2015-09-07 13:27:50]: Initialize PlayerStatsV Plugin
[2015-09-07 13:31:30]: Initialize PlayerStatsV Plugin
[2015-09-07 13:38:38]: Initialize PlayerStatsV Plugin
[2015-09-07 13:40:48]: Initialize PlayerStatsV Plugin
[2015-09-07 13:41:16]: Initialize PlayerStatsV Plugin
[2015-09-07 13:53:45]: Initialize PlayerStatsV Plugin
[2015-09-07 13:59:29]: Initialize PlayerStatsV Plugin
[2015-09-07 14:02:03]: Initialize PlayerStatsV Plugin
[2015-09-07 14:30:23]: Initialize PlayerStatsV Plugin
[2015-09-07 14:34:05]: Initialize PlayerStatsV Plugin
[2015-09-07 17:33:00]: Initialize PlayerStatsV Plugin
[2015-09-07 17:35:32]: Initialize PlayerStatsV Plugin
[2015-09-07 17:36:41]: Initialize PlayerStatsV Plugin
[2015-09-07 17:37:47]: Initialize PlayerStatsV Plugin
[2015-09-07 17:38:27]: Initialize PlayerStatsV Plugin
[2015-09-07 17:41:48]: Initialize PlayerStatsV Plugin
[2015-09-07 17:44:18]: Initialize PlayerStatsV Plugin
[2015-09-07 17:45:02]: Initialize PlayerStatsV Plugin
[2015-09-07 17:48:14]: Initialize PlayerStatsV Plugin
[2015-09-07 17:50:33]: Initialize PlayerStatsV Plugin
[2015-09-07 17:53:27]: Initialize PlayerStatsV Plugin
[2015-09-07 17:55:37]: Initialize PlayerStatsV Plugin
[2015-09-07 17:58:11]: Initialize PlayerStatsV Plugin
[2015-09-07 17:59:20]: Initialize PlayerStatsV Plugin
[2015-09-07 18:02:32]: Initialize PlayerStatsV Plugin
[2015-09-07 18:04:47]: Initialize PlayerStatsV Plugin
[2015-09-07 18:07:02]: Initialize PlayerStatsV Plugin
[2015-09-07 18:08:53]: Initialize PlayerStatsV Plugin
[2015-09-07 18:11:04]: Initialize PlayerStatsV Plugin
[2015-09-07 18:13:35]: Initialize PlayerStatsV Plugin
[2015-09-07 18:15:57]: Initialize PlayerStatsV Plugin
[2015-09-08 16:03:23]: Initialize PlayerStatsV Plugin
[2015-09-08 16:06:53]: Initialize PlayerStatsV Plugin
[2015-09-08 16:06:59]: Initialize PlayerStatsV Plugin
[2015-09-08 16:07:24]: Initialize PlayerStatsV Plugin
[2015-09-08 16:07:58]: Initialize PlayerStatsV Plugin
[2015-09-08 16:11:42]: Initialize PlayerStatsV Plugin
[2015-09-08 16:12:00]: Initialize PlayerStatsV Plugin
[2015-09-08 16:12:53]: Initialize PlayerStatsV Plugin
[2015-09-08 16:17:04]: Initialize PlayerStatsV Plugin
[2015-09-08 16:17:16]: Initialize PlayerStatsV Plugin
[2015-09-08 16:23:07]: Initialize PlayerStatsV Plugin
[2015-09-08 16:27:01]: Initialize PlayerStatsV Plugin
[2015-09-08 16:42:32]: Initialize PlayerStatsV Plugin
[2015-09-08 16:45:25]: Initialize PlayerStatsV Plugin
[2015-09-08 16:47:51]: Initialize PlayerStatsV Plugin
[2015-09-08 16:49:11]: Initialize PlayerStatsV Plugin
[2015-09-08 17:05:14]: Initialize PlayerStatsV Plugin
[2015-09-08 17:05:47]: Initialize PlayerStatsV Plugin
[2015-09-08 17:06:13]: Initialize PlayerStatsV Plugin
[2015-09-08 17:06:28]: Initialize PlayerStatsV Plugin
[2015-09-08 17:06:38]: Initialize PlayerStatsV Plugin
[2015-09-08 17:07:49]: Initialize PlayerStatsV Plugin
[2015-09-08 17:07:58]: Initialize PlayerStatsV Plugin
[2015-09-08 17:08:08]: Initialize PlayerStatsV Plugin
[2015-09-08 17:08:37]: Initialize PlayerStatsV Plugin
[2015-09-08 17:08:47]: Initialize PlayerStatsV Plugin
[2015-09-08 17:09:11]: Initialize PlayerStatsV Plugin
[2015-09-08 17:09:30]: Initialize PlayerStatsV Plugin
[2015-09-08 17:09:52]: Initialize PlayerStatsV Plugin
[2015-09-08 17:10:23]: Initialize PlayerStatsV Plugin
[2015-09-08 17:11:34]: Initialize PlayerStatsV Plugin
[2015-09-08 17:15:32]: Initialize PlayerStatsV Plugin
[2015-09-08 17:16:09]: Initialize PlayerStatsV Plugin
[2015-09-08 17:16:42]: Initialize PlayerStatsV Plugin
[2015-09-08 17:17:00]: Initialize PlayerStatsV Plugin
[2015-09-08 18:04:22]: Initialize PlayerStatsV Plugin
[2015-09-08 18:05:43]: Initialize PlayerStatsV Plugin
[2015-09-08 18:06:12]: Initialize PlayerStatsV Plugin
[2015-09-08 18:12:40]: Initialize PlayerStatsV Plugin
[2015-09-08 18:21:37]: Initialize PlayerStatsV Plugin
[2015-09-08 18:37:45]: Initialize PlayerStatsV Plugin
[2015-09-08 18:45:50]: Initialize PlayerStatsV Plugin
[2015-09-08 18:47:49]: Initialize PlayerStatsV Plugin
[2015-09-08 18:50:44]: Initialize PlayerStatsV Plugin
[2015-09-09 19:51:42]: Initialize PlayerStatsV Plugin
[2015-09-09 19:52:28]: Initialize PlayerStatsV Plugin
[2015-09-09 19:53:07]: Initialize PlayerStatsV Plugin
[2015-09-09 19:54:06]: Initialize PlayerStatsV Plugin
[2015-09-09 19:54:47]: Initialize PlayerStatsV Plugin
[2015-09-09 19:55:01]: Initialize PlayerStatsV Plugin
[2015-09-09 19:55:31]: Initialize PlayerStatsV Plugin
[2015-09-10 17:22:54]: Initialize PlayerStatsV Plugin
[2015-09-10 17:25:02]: Initialize PlayerStatsV Plugin
[2015-09-10 17:25:09]: Initialize PlayerStatsV Plugin
[2015-09-10 17:26:17]: Initialize PlayerStatsV Plugin
[2015-09-10 17:27:24]: Initialize PlayerStatsV Plugin
[2015-09-10 17:27:46]: Initialize PlayerStatsV Plugin
[2015-09-10 17:27:58]: Initialize PlayerStatsV Plugin
[2015-09-10 17:28:05]: Initialize PlayerStatsV Plugin
[2015-09-10 17:28:18]: Initialize PlayerStatsV Plugin
[2015-09-10 17:29:01]: Initialize PlayerStatsV Plugin
[2015-09-10 17:29:29]: Initialize PlayerStatsV Plugin
[2015-09-10 17:30:14]: Initialize PlayerStatsV Plugin
[2015-09-10 17:30:28]: Initialize PlayerStatsV Plugin
[2015-09-10 17:30:54]: Initialize PlayerStatsV Plugin
[2015-09-10 17:31:10]: Initialize PlayerStatsV Plugin
[2015-09-10 17:33:31]: Initialize PlayerStatsV Plugin
[2015-09-10 17:33:46]: Initialize PlayerStatsV Plugin
[2015-09-10 17:33:57]: Initialize PlayerStatsV Plugin
[2015-09-10 17:34:13]: Initialize PlayerStatsV Plugin
[2015-09-10 17:34:35]: Initialize PlayerStatsV Plugin
[2015-09-10 17:36:45]: Initialize PlayerStatsV Plugin
[2015-09-10 17:38:20]: Initialize PlayerStatsV Plugin
[2015-09-10 17:41:31]: Initialize PlayerStatsV Plugin
[2015-09-10 17:42:41]: Initialize PlayerStatsV Plugin
[2015-09-10 17:46:19]: Initialize PlayerStatsV Plugin
[2015-09-10 17:47:39]: Initialize PlayerStatsV Plugin
[2015-09-10 17:48:55]: Initialize PlayerStatsV Plugin
[2015-09-10 17:49:30]: Initialize PlayerStatsV Plugin
[2015-09-10 17:49:53]: Initialize PlayerStatsV Plugin
[2015-09-10 17:50:10]: Initialize PlayerStatsV Plugin
[2015-09-10 17:51:20]: Initialize PlayerStatsV Plugin
[2015-09-10 17:52:30]: Initialize PlayerStatsV Plugin
[2015-09-10 17:53:14]: Initialize PlayerStatsV Plugin
[2015-09-10 17:53:37]: Initialize PlayerStatsV Plugin
[2015-09-10 17:54:54]: Initialize PlayerStatsV Plugin
[2015-09-10 17:55:05]: Initialize PlayerStatsV Plugin
[2015-09-10 17:55:25]: Initialize PlayerStatsV Plugin
[2015-09-10 17:55:48]: Initialize PlayerStatsV Plugin
[2015-09-10 17:56:15]: Initialize PlayerStatsV Plugin
[2015-09-10 17:56:34]: Initialize PlayerStatsV Plugin
[2015-09-10 17:57:10]: Initialize PlayerStatsV Plugin
[2015-09-10 17:57:44]: Initialize PlayerStatsV Plugin
[2015-09-10 17:58:34]: Initialize PlayerStatsV Plugin
[2015-09-10 17:58:43]: Initialize PlayerStatsV Plugin
[2015-09-10 17:58:54]: Initialize PlayerStatsV Plugin
[2015-09-10 17:59:07]: Initialize PlayerStatsV Plugin
[2015-09-10 17:59:22]: Initialize PlayerStatsV Plugin
[2015-09-10 17:59:31]: Initialize PlayerStatsV Plugin
[2015-09-10 17:59:39]: Initialize PlayerStatsV Plugin
[2015-09-10 17:59:47]: Initialize PlayerStatsV Plugin
[2015-09-10 18:00:17]: Initialize PlayerStatsV Plugin
[2015-09-10 18:01:02]: Initialize PlayerStatsV Plugin
[2015-09-10 18:01:55]: Initialize PlayerStatsV Plugin
[2015-09-10 18:02:00]: Initialize PlayerStatsV Plugin
[2015-09-10 18:02:54]: Initialize PlayerStatsV Plugin
[2015-09-10 18:04:24]: Initialize PlayerStatsV Plugin
[2015-09-10 18:04:59]: Initialize PlayerStatsV Plugin
[2015-09-10 18:09:02]: Initialize PlayerStatsV Plugin
[2015-09-10 18:09:17]: Initialize PlayerStatsV Plugin
[2015-09-10 18:09:51]: Initialize PlayerStatsV Plugin
[2015-09-10 18:10:35]: Initialize PlayerStatsV Plugin
[2015-09-10 18:11:42]: Initialize PlayerStatsV Plugin
[2015-09-10 18:13:04]: Initialize PlayerStatsV Plugin
[2015-09-10 18:26:24]: Initialize PlayerStatsV Plugin
[2015-09-10 18:29:59]: Initialize PlayerStatsV Plugin
[2015-09-10 18:34:14]: Initialize PlayerStatsV Plugin
[2015-09-10 18:35:46]: Initialize PlayerStatsV Plugin
[2015-09-11 20:13:29]: Initialize PlayerStatsV Plugin
[2015-09-11 20:17:32]: Initialize PlayerStatsV Plugin
[2015-09-11 20:18:19]: Initialize PlayerStatsV Plugin
[2015-09-11 20:19:25]: Initialize PlayerStatsV Plugin
[2015-09-11 20:19:51]: Initialize PlayerStatsV Plugin
[2015-09-11 20:27:08]: Initialize PlayerStatsV Plugin
[2015-09-11 20:27:51]: Initialize PlayerStatsV Plugin
[2015-09-11 20:30:41]: Initialize PlayerStatsV Plugin
[2015-09-11 20:31:12]: Initialize PlayerStatsV Plugin
[2015-09-12 15:36:14]: Initialize PlayerStatsV Plugin
[2015-09-12 15:43:56]: Initialize PlayerStatsV Plugin
[2015-09-12 15:47:43]: Initialize PlayerStatsV Plugin
[2015-09-12 15:49:34]: Initialize PlayerStatsV Plugin
[2015-09-12 15:51:28]: Initialize PlayerStatsV Plugin
[2015-09-12 15:55:12]: Initialize PlayerStatsV Plugin
[2015-09-12 16:01:01]: Initialize PlayerStatsV Plugin
[2015-09-12 16:04:49]: Initialize PlayerStatsV Plugin
[2015-09-12 16:09:11]: Initialize PlayerStatsV Plugin
[2015-09-12 16:13:38]: Initialize PlayerStatsV Plugin
[2015-09-12 22:21:41]: Initialize PlayerStatsV Plugin
[2015-09-12 22:34:51]: Initialize PlayerStatsV Plugin
[2015-09-12 22:44:39]: Initialize PlayerStatsV Plugin
[2015-09-12 23:03:39]: Initialize PlayerStatsV Plugin
[2015-09-12 23:07:23]: Initialize PlayerStatsV Plugin
[2015-09-14 09:43:08]: Initialize PlayerStatsV Plugin
[2015-09-14 09:45:30]: Initialize PlayerStatsV Plugin
[2015-09-14 10:00:05]: Initialize PlayerStatsV Plugin
[2015-09-14 10:00:48]: Initialize PlayerStatsV Plugin
[2015-09-14 10:04:08]: Initialize PlayerStatsV Plugin
[2015-09-14 10:08:41]: Initialize PlayerStatsV Plugin
[2015-09-14 10:11:52]: Initialize PlayerStatsV Plugin
[2015-09-14 10:14:02]: Initialize PlayerStatsV Plugin
[2015-09-14 10:16:50]: Initialize PlayerStatsV Plugin
[2015-09-14 10:19:22]: Initialize PlayerStatsV Plugin
[2015-09-14 10:27:35]: Initialize PlayerStatsV Plugin
[2015-09-14 10:31:39]: Initialize PlayerStatsV Plugin
[2015-09-14 23:56:34]: Initialize PlayerStatsV Plugin
[2015-09-14 23:56:49]: Initialize PlayerStatsV Plugin
[2015-09-14 23:57:29]: Initialize PlayerStatsV Plugin
[2015-09-14 23:59:00]: Initialize PlayerStatsV Plugin
[2015-09-15 00:00:59]: Initialize PlayerStatsV Plugin
[2015-09-22 17:54:39]: Initialize PlayerStatsV Plugin
[2015-09-22 17:55:08]: Initialize PlayerStatsV Plugin
[2015-09-22 18:27:24]: Initialize PlayerStatsV Plugin
[2015-09-29 14:29:57]: Initialize PlayerStatsV Plugin
[2015-09-29 14:36:45]: Initialize PlayerStatsV Plugin
[2015-09-29 14:43:46]: Initialize PlayerStatsV Plugin
[2015-09-29 14:45:08]: Initialize PlayerStatsV Plugin
[2015-09-29 14:45:30]: Initialize PlayerStatsV Plugin
[2015-09-29 14:46:57]: Initialize PlayerStatsV Plugin
[2015-09-29 14:49:21]: Initialize PlayerStatsV Plugin
[2015-09-29 14:50:15]: Initialize PlayerStatsV Plugin
[2015-09-29 14:59:12]: Initialize PlayerStatsV Plugin
[2015-09-29 15:04:54]: Initialize PlayerStatsV Plugin
[2015-09-29 15:09:29]: Initialize PlayerStatsV Plugin
[2015-09-29 15:15:11]: Initialize PlayerStatsV Plugin
[2015-10-06 10:27:01]: Initialize PlayerStatsV Plugin
